Review
…
gss <- gss %>% 
  mutate(age = as.numeric(age),
         educ = as.numeric(educ)) %>% 
  factorize()
gss

## # A tibble: 3,842 x 14
##     year    id   age  educ    sex   race           res16         income
##    <dbl> <dbl> <dbl> <dbl> <fctr> <fctr>          <fctr>         <fctr>
##  1  2014     1    53    16   MALE  WHITE BIG-CITY SUBURB $25000 OR MORE
##  2  2014     2    26    16 FEMALE  WHITE   TOWN LT 50000 $25000 OR MORE
##  3  2014     3    59    13   MALE  WHITE   TOWN LT 50000 $25000 OR MORE
##  4  2014     4    56    16 FEMALE  WHITE   TOWN LT 50000 $25000 OR MORE
##  5  2014     5    74    17 FEMALE  WHITE  CITY GT 250000           <NA>
##  6  2014     6    56    17 FEMALE  WHITE   TOWN LT 50000 $25000 OR MORE
##  7  2014     7    63    12   MALE  WHITE  CITY GT 250000           <NA>
##  8  2014     8    34    17   MALE  WHITE BIG-CITY SUBURB $25000 OR MORE
##  9  2014     9    37    10 FEMALE  WHITE   TOWN LT 50000 $15000 - 19999
## 10  2014    10    30    15 FEMALE  OTHER  CITY GT 250000 $25000 OR MORE
## # ... with 3,832 more rows, and 6 more variables: partyid <fctr>,
## #   polviews <fctr>, VOTE08 <fctr>, VOTE12 <fctr>, PRES08 <fctr>,
## #   PRES12 <fctr>
…
matches()

num_range()

Note: These can be used in other functions as well (e.g., gather), but are probably most often used within select()

Mix types

You can mix types and helper funs. You can also use select to rearrange your columns.

library(ggplot2)
diamonds %>% 
    select(depth, 6, starts_with("c"), price)

## # A tibble: 53,940 x 7
##    depth table carat       cut color clarity price
##    <dbl> <dbl> <dbl>     <ord> <ord>   <ord> <int>
##  1  61.5    55  0.23     Ideal     E     SI2   326
##  2  59.8    61  0.21   Premium     E     SI1   326
##  3  56.9    65  0.23      Good     E     VS1   327
##  4  62.4    58  0.29   Premium     I     VS2   334
##  5  63.3    58  0.31      Good     J     SI2   335
##  6  62.8    57  0.24 Very Good     J    VVS2   336
##  7  62.3    57  0.24 Very Good     I    VVS1   336
##  8  61.9    55  0.26 Very Good     H     SI1   337
##  9  65.1    61  0.22      Fair     E     VS2   337
## 10  59.4    61  0.23 Very Good     H     VS1   338
## # ... with 53,930 more rows
…
(Figure from Wickham & Grolemund, 2017)

Create or overwrite variables: mutate

Calculate gain score

reads <- import("../../data/Project_Reads_Scores.csv", setclass = "tbl_df") %>% 
  janitor::clean_names()
reads %>% 
  mutate(gain = post_test_score - pre_test_score) %>% 
  select(student_id, 5, 7, gain)

## # A tibble: 48 x 4
##    student_id pre_test_score post_test_score  gain
##         <chr>          <int>           <int> <int>
##  1   Virden 1             43              92    49
##  2   Virden 2             46             104    58
##  3   Virden 3             39              75    36
##  4   Virden 4             35             115    80
##  5   Virden 5             46              85    39
##  6   Virden 6             35              91    56
##  7   Virden 7             40              96    56
##  8   Virden 8             39              74    35
##  9   Virden 9             40              90    50
## 10  Virden 10             45              86    41
## # ... with 38 more rows

Overwrite a variable

Standardize

reads %>% 
  mutate(pre_test_score = scale(pre_test_score),
         post_test_score = scale(post_test_score)) %>% 
  select(student_id, 5, 7)

## # A tibble: 48 x 3
##    student_id pre_test_score post_test_score
##         <chr>          <dbl>           <dbl>
##  1   Virden 1      0.2241918      -0.4333331
##  2   Virden 2      0.6380844       0.4776153
##  3   Virden 3     -0.3276650      -1.7238434
##  4   Virden 4     -0.8795218       1.3126514
##  5   Virden 5      0.6380844      -0.9647197
##  6   Virden 6     -0.8795218      -0.5092455
##  7   Virden 7     -0.1897008      -0.1296836
##  8   Virden 8     -0.3276650      -1.7997557
##  9   Virden 9     -0.1897008      -0.5851578
## 10  Virden 10      0.5001202      -0.8888073
## # ... with 38 more rows
…
tidy data and tidyr

Review Homework 4

Tidy the reads dataset, minus columns 5-9

reads %>% 
  select(-5:-9)

## # A tibble: 48 x 20
##                 test_year test_type test_site student_id unit_1_score
##                     <chr>     <chr>     <chr>      <chr>        <int>
##  1 06/01/2016 12:00:00 AM  YEAR END    VIRDEN   Virden 1            3
##  2 06/01/2016 12:00:00 AM  YEAR END    VIRDEN   Virden 2            5
##  3 06/01/2016 12:00:00 AM  YEAR END    VIRDEN   Virden 3            4
##  4 06/01/2016 12:00:00 AM  YEAR END    VIRDEN   Virden 4            4
##  5 06/01/2016 12:00:00 AM  YEAR END    VIRDEN   Virden 5            2
##  6 06/01/2016 12:00:00 AM  YEAR END    VIRDEN   Virden 6            5
##  7 06/01/2016 12:00:00 AM  YEAR END    VIRDEN   Virden 7            5
##  8 06/01/2016 12:00:00 AM  YEAR END    VIRDEN   Virden 8            4
##  9 06/01/2016 12:00:00 AM  YEAR END    VIRDEN   Virden 9            6
## 10 06/01/2016 12:00:00 AM  YEAR END    VIRDEN  Virden 10            4
## # ... with 38 more rows, and 15 more variables: unit_1_percent <chr>,
## #   unit_2_score <int>, unit_2_percent <chr>, unit_3_score <int>,
## #   unit_3_percent <chr>, unit_4_score <int>, unit_4_percent <chr>,
## #   unit_5_6_score <int>, unit_5_6_percent <chr>, unit_7_score <int>,
## #   unit_7_percent <chr>, unit_8_score <int>, unit_8_percent <chr>,
## #   total_score <int>, total_percent_correct <chr>
…
Anything wrong with this?

library(tidyr)
double_gather <- reads %>% 
  select(4, 1:3, 10:23) %>% 
  filter(student_id != "All Students (Average)") %>% 
  gather(unit, score, contains("score")) %>% 
  gather(unit2, percent, contains("percent")) %>% 
  mutate(unit = readr::parse_number(unit)) %>% 
  select(-unit2)

double_gather

## # A tibble: 2,205 x 7
##    student_id              test_year test_type test_site  unit score
##         <chr>                  <chr>     <chr>     <chr> <dbl> <int>
##  1   Virden 1 06/01/2016 12:00:00 AM  YEAR END    VIRDEN     1     3
##  2   Virden 2 06/01/2016 12:00:00 AM  YEAR END    VIRDEN     1     5
##  3   Virden 3 06/01/2016 12:00:00 AM  YEAR END    VIRDEN     1     4
##  4   Virden 4 06/01/2016 12:00:00 AM  YEAR END    VIRDEN     1     4
##  5   Virden 5 06/01/2016 12:00:00 AM  YEAR END    VIRDEN     1     2
##  6   Virden 6 06/01/2016 12:00:00 AM  YEAR END    VIRDEN     1     5
##  7   Virden 7 06/01/2016 12:00:00 AM  YEAR END    VIRDEN     1     5
##  8   Virden 8 06/01/2016 12:00:00 AM  YEAR END    VIRDEN     1     4
##  9   Virden 9 06/01/2016 12:00:00 AM  YEAR END    VIRDEN     1     6
## 10  Virden 10 06/01/2016 12:00:00 AM  YEAR END    VIRDEN     1     4
## # ... with 2,195 more rows, and 1 more variables: percent <chr>

What’s going on?

double_gather %>% 
  count(student_id) 

## # A tibble: 45 x 2
##    student_id     n
##         <chr> <int>
##  1    Jones 1    49
##  2   Jones 10    49
##  3   Jones 11    49
##  4   Jones 12    49
##  5   Jones 13    49
##  6   Jones 14    49
##  7   Jones 15    49
##  8    Jones 2    49
##  9    Jones 3    49
## 10    Jones 4    49
## # ... with 35 more rows
…
Gather all, then spread. BUT, requires common names to parse out the variables that are currently stored in the column names.

names(reads)[grep("\\d_\\d", names(reads))] <- c("unit_5-6_score", "unit_5-6_percent")

reads_tidy <- reads %>% 
  select(4, 1:3, 10:23) %>% 
  filter(student_id != "All Students (Average)") %>% 
  gather(var, val, -1:-4) %>% 
  separate(var, c("dis", "unit", "type"), sep = "_") %>% 
  select(-dis) %>% 
  spread(type, val)
reads_tidy

## # A tibble: 315 x 7
##    student_id              test_year test_type test_site  unit percent
##  *      <chr>                  <chr>     <chr>     <chr> <chr>   <chr>
##  1    Jones 1 06/01/2016 12:00:00 AM  YEAR END     JONES     1     16%
##  2    Jones 1 06/01/2016 12:00:00 AM  YEAR END     JONES     2     16%
##  3    Jones 1 06/01/2016 12:00:00 AM  YEAR END     JONES     3     20%
##  4    Jones 1 06/01/2016 12:00:00 AM  YEAR END     JONES     4     33%
##  5    Jones 1 06/01/2016 12:00:00 AM  YEAR END     JONES   5-6     30%
##  6    Jones 1 06/01/2016 12:00:00 AM  YEAR END     JONES     7     63%
##  7    Jones 1 06/01/2016 12:00:00 AM  YEAR END     JONES     8     53%
##  8   Jones 10 06/01/2016 12:00:00 AM  YEAR END     JONES     1     12%
##  9   Jones 10 06/01/2016 12:00:00 AM  YEAR END     JONES     2     12%
## 10   Jones 10 06/01/2016 12:00:00 AM  YEAR END     JONES     3     20%
## # ... with 305 more rows, and 1 more variables: score <chr>
…
My method

Load the data

insurance <- import("../../data/insurance_coverage.csv", skip =  3, setclass = "tbl_df") %>% 
  janitor::clean_names()

## Warning in fread(skip = 3, input = structure("../../data/
## insurance_coverage.csv", class = c("rio_csv", : Stopped reading at empty
## line 41 but text exists afterwards (discarded): PK

insurance

## # A tibble: 36 x 11
##    in_oregon_csvage_bucket      insurance_name     insurance  year
##                      <chr>               <chr>         <chr> <int>
##  1        insurance_18to24 healthcare coverage has_insurance  2014
##  2        insurance_18to24 healthcare coverage has_insurance  2014
##  3        insurance_25to34 healthcare coverage has_insurance  2014
##  4        insurance_25to34 healthcare coverage has_insurance  2014
##  5        insurance_35to44 healthcare coverage has_insurance  2014
##  6        insurance_35to44 healthcare coverage has_insurance  2014
##  7        insurance_45to54 healthcare coverage has_insurance  2014
##  8        insurance_45to54 healthcare coverage has_insurance  2014
##  9        insurance_55to64 healthcare coverage has_insurance  2014
## 10        insurance_55to64 healthcare coverage has_insurance  2014
## # ... with 26 more rows, and 7 more variables: geo_name <chr>, geo <chr>,
## #   sex_name <chr>, sex <chr>, hc_pop <int>, hc_pop_moe <dbl>,
## #   hc_pop_rca <dbl>
…
