Estimating important things with public data - Data Science in Education
…
library(tidyverse)
theme_set(theme_minimal())

Now, we just need to simulate some data. I’ll simulate data for two groups, assuming both are distributed normally, with the first having a mean of 100 and standard deviation of 10. The second will have scores, on average, half a standard deviation less than the first (so 5 points). To keep things simple, I’ll make the standard deviation the same (although in principle they can be different). We’ll simulate 500 students in the first group and 200 in the second, then put it together in a data frame. I’ll also set a seed so the results are reproducible.

set.seed(8675309)
g1 <- rnorm(500, 100, 10)
g2 <- rnorm(200, 95, 10)

d <- tibble(id = 1:700,
            group = c(rep("g1", 500), rep("g2", 200)),
            score = c(g1, g2))
d

## # A tibble: 700 x 3
##       id group score
##    <int> <chr> <dbl>
##  1     1 g1     90.0
##  2     2 g1    107. 
##  3     3 g1     93.8
##  4     4 g1    120. 
##  5     5 g1    111. 
##  6     6 g1    110. 
##  7     7 g1    100. 
##  8     8 g1    107. 
##  9     9 g1    106. 
## 10    10 g1    109. 
## # … with 690 more rows
…
g2_ecdf <- d %>% 
  filter(group == "g2") %>% 
  pull(score) %>% 
  ecdf()

matched_d <- tibble(range = 60:140,
                    g1_cdf = g1_ecdf(range),
                    g2_cdf = g2_ecdf(range))
matched_d

## # A tibble: 81 x 3
##    range g1_cdf g2_cdf
##    <int>  <dbl>  <dbl>
##  1    60  0       0   
##  2    61  0       0   
##  3    62  0       0   
##  4    63  0       0   
##  5    64  0       0   
##  6    65  0       0   
##  7    66  0       0   
##  8    67  0       0   
##  9    68  0.002   0.01
## 10    69  0.002   0.01
## # … with 71 more rows
…
Why do we do all the gymnastics above if we can use Cohen’s $D$ to get, essentially, the same answer? In some ways, $V$ is preferable to Cohen’s $D$, because it rests on fewer assumptions. But more importantly, we can use the method even when all we have access to is ordinal data reported as the percentage of people in each of $n$ categories, as is required by statewide testing agencies, but also common in other areas (e.g., underweight, normal, overweight, or obese for various body-mass index (BMI) ranges). We can do this because we can use the percentage of respondents in each category to approximate the ECDF for each group, match these curves, calculate the area under the curve, and then transform it to an effect size. This all makes intuitive sense, but let’s prove this to ourselves.

Coarsening the data

I’ll make up three cut scores to define four performance categories: 92, 97, and 107. Note that these are purposefully not evenly spaced, as is common in statewide testing, but some basic simulations I’ve conducted in the past suggest that the better the spacing, the better the ECDF approximation will be (which again, makes intuitive sense).

d <- d %>% 
  mutate(category = case_when(score < 92 ~ 1,
                              score >= 92 & score < 97 ~ 2,
                              score >= 97 & score < 107 ~ 3,
                              score >= 107 ~ 4))
d

## # A tibble: 700 x 4
##       id group score category
##    <int> <chr> <dbl>    <dbl>
##  1     1 g1     90.0        1
##  2     2 g1    107.         4
##  3     3 g1     93.8        2
##  4     4 g1    120.         4
##  5     5 g1    111.         4
##  6     6 g1    110.         4
##  7     7 g1    100.         3
##  8     8 g1    107.         3
##  9     9 g1    106.         3
## 10    10 g1    109.         4
## # … with 690 more rows
…
