Some data viz advice
…
---
class: inverse center middle
# Quick empirical examples

---
# Titanic data

```
## # A tibble: 1,313 x 5
##   name                                          class   age sex    survived
##   <chr>                                         <chr> <dbl> <chr>     <int>
## 1 Allen, Miss Elisabeth Walton                  1st   29    female        1
## 2 Allison, Miss Helen Loraine                   1st    2    female        0
## 3 Allison, Mr Hudson Joshua Creighton           1st   30    male          0
## 4 Allison, Mrs Hudson JC (Bessie Waldo Daniels) 1st   25    female        0
## 5 Allison, Master Hudson Trevor                 1st    0.92 male          1
## 6 Anderson, Mr Harry                            1st   47    male          1
## # … with 1,307 more rows
```
…
