Advanced dplyr and More on RMarkdown - Data Science in Education
…
Order the data in ascending or descending order

Center a variable (i.e., subtract the mean from each observation)

Compute the mean and standard deviation of a variable by one or more groups (e.g., mean math score for each school)

First, let’s load in some data

library(rio)
mcrc <- import("../../data/mcrc.csv", setclass = "tbl_df", na = ".") %>% 
  janitor::clean_names()
mcrc

## # A tibble: 72,948 x 47
##       id schid                      race           ethnicity   ell
##    <int> <int>                     <chr>               <chr> <chr>
##  1  8307   381                     White Not Hispanic/Latino      
##  2  8308   449                           Not Hispanic/Latino      
##  3  8309   817                     White Not Hispanic/Latino      
##  4  8310   979 Black or African American Not Hispanic/Latino      
##  5  8311    13                     White Not Hispanic/Latino      
##  6  8312   410 Black or African American     Hispanic/Latino     Y
##  7  8313   529                     White Not Hispanic/Latino      
##  8  8314   967 Black or African American Not Hispanic/Latino      
##  9  8315   589 Black or African American Not Hispanic/Latino      
## 10  8316   257                   Unknown             Unknown      
## # ... with 72,938 more rows, and 42 more variables: disability <chr>,
## #   score <int>, item_1_response <int>, item_1_correct <chr>,
## #   item_2_response <int>, item_2_correct <chr>, item_3_response <int>,
## #   item_3_correct <chr>, item_4_response <int>, item_4_correct <chr>,
## #   item_5_response <int>, item_5_correct <chr>, item_6_response <int>,
## #   item_6_correct <chr>, item_7_response <int>, item_7_correct <chr>,
## #   item_8_response <int>, item_8_correct <chr>, item_9_response <int>,
## #   item_9_correct <chr>, item_10_response <int>, item_10_correct <chr>,
## #   item_11_response <int>, item_11_correct <chr>, item_12_response <int>,
## #   item_12_correct <chr>, item_13_response <int>, item_13_correct <chr>,
## #   item_14_response <int>, item_14_correct <chr>, item_15_response <int>,
## #   item_15_correct <chr>, item_16_response <int>, item_16_correct <chr>,
## #   item_17_response <int>, item_17_correct <chr>, item_18_response <int>,
## #   item_18_correct <chr>, item_19_response <int>, item_19_correct <chr>,
## #   item_20_response <int>, item_20_correct <chr>

Extract only the first and third through ninth columns

library(dplyr)
mcrc %>% 
  select(1, 3:9)

## # A tibble: 72,948 x 8
##       id                      race           ethnicity   ell disability
##    <int>                     <chr>               <chr> <chr>      <chr>
##  1  8307                     White Not Hispanic/Latino                 
##  2  8308                           Not Hispanic/Latino                 
##  3  8309                     White Not Hispanic/Latino                 
##  4  8310 Black or African American Not Hispanic/Latino                 
##  5  8311                     White Not Hispanic/Latino                 
##  6  8312 Black or African American     Hispanic/Latino     Y           
##  7  8313                     White Not Hispanic/Latino                 
##  8  8314 Black or African American Not Hispanic/Latino                 
##  9  8315 Black or African American Not Hispanic/Latino                 
## 10  8316                   Unknown             Unknown                 
## # ... with 72,938 more rows, and 3 more variables: score <int>,
## #   item_1_response <int>, item_1_correct <chr>

Extract the third column and any column that ends with “response”

mcrc %>% 
  select(3, ends_with("response"))

## # A tibble: 72,948 x 21
##                         race item_1_response item_2_response
##                        <chr>           <int>           <int>
##  1                     White               3               1
##  2                                         3               2
##  3                     White               3               1
##  4 Black or African American               3               1
##  5                     White               3               1
##  6 Black or African American               3               1
##  7                     White               3               1
##  8 Black or African American               1               1
##  9 Black or African American               1               1
## 10                   Unknown               3               1
## # ... with 72,938 more rows, and 18 more variables: item_3_response <int>,
## #   item_4_response <int>, item_5_response <int>, item_6_response <int>,
## #   item_7_response <int>, item_8_response <int>, item_9_response <int>,
## #   item_10_response <int>, item_11_response <int>,
## #   item_12_response <int>, item_13_response <int>,
## #   item_14_response <int>, item_15_response <int>,
## #   item_16_response <int>, item_17_response <int>,
## #   item_18_response <int>, item_19_response <int>, item_20_response <int>

Reorder columns

mcrc %>% 
  select(1:6, ends_with("correct"), ends_with("response"))

## # A tibble: 72,948 x 46
##       id schid                      race           ethnicity   ell
##    <int> <int>                     <chr>               <chr> <chr>
##  1  8307   381                     White Not Hispanic/Latino      
##  2  8308   449                           Not Hispanic/Latino      
##  3  8309   817                     White Not Hispanic/Latino      
##  4  8310   979 Black or African American Not Hispanic/Latino      
##  5  8311    13                     White Not Hispanic/Latino      
##  6  8312   410 Black or African American     Hispanic/Latino     Y
##  7  8313   529                     White Not Hispanic/Latino      
##  8  8314   967 Black or African American Not Hispanic/Latino      
##  9  8315   589 Black or African American Not Hispanic/Latino      
## 10  8316   257                   Unknown             Unknown      
## # ... with 72,938 more rows, and 41 more variables: disability <chr>,
## #   item_1_correct <chr>, item_2_correct <chr>, item_3_correct <chr>,
## #   item_4_correct <chr>, item_5_correct <chr>, item_6_correct <chr>,
## #   item_7_correct <chr>, item_8_correct <chr>, item_9_correct <chr>,
## #   item_10_correct <chr>, item_11_correct <chr>, item_12_correct <chr>,
## #   item_13_correct <chr>, item_14_correct <chr>, item_15_correct <chr>,
## #   item_16_correct <chr>, item_17_correct <chr>, item_18_correct <chr>,
## #   item_19_correct <chr>, item_20_correct <chr>, item_1_response <int>,
## #   item_2_response <int>, item_3_response <int>, item_4_response <int>,
## #   item_5_response <int>, item_6_response <int>, item_7_response <int>,
## #   item_8_response <int>, item_9_response <int>, item_10_response <int>,
## #   item_11_response <int>, item_12_response <int>,
## #   item_13_response <int>, item_14_response <int>,
## #   item_15_response <int>, item_16_response <int>,
## #   item_17_response <int>, item_18_response <int>,
## #   item_19_response <int>, item_20_response <int>

Extract only cases from students classified as English Language Learners

mcrc %>% 
  filter(ell == "Y")

## # A tibble: 5,687 x 47
##       id schid                              race           ethnicity   ell
##    <int> <int>                             <chr>               <chr> <chr>
##  1  8312   410         Black or African American     Hispanic/Latino     Y
##  2  8323    32                             White Not Hispanic/Latino     Y
##  3  8326   520                             White     Hispanic/Latino     Y
##  4  8341   196 American Indian or Alaskan Native     Hispanic/Latino     Y
##  5  8388   620                             White     Hispanic/Latino     Y
##  6  8405   844                             White     Hispanic/Latino     Y
##  7  8409   585                             White Not Hispanic/Latino     Y
##  8  8417   390                             White Not Hispanic/Latino     Y
##  9  8442   851                                   Not Hispanic/Latino     Y
## 10  8459   374                             White Not Hispanic/Latino     Y
## # ... with 5,677 more rows, and 42 more variables: disability <chr>,
## #   score <int>, item_1_response <int>, item_1_correct <chr>,
## #   item_2_response <int>, item_2_correct <chr>, item_3_response <int>,
## #   item_3_correct <chr>, item_4_response <int>, item_4_correct <chr>,
## #   item_5_response <int>, item_5_correct <chr>, item_6_response <int>,
## #   item_6_correct <chr>, item_7_response <int>, item_7_correct <chr>,
## #   item_8_response <int>, item_8_correct <chr>, item_9_response <int>,
## #   item_9_correct <chr>, item_10_response <int>, item_10_correct <chr>,
## #   item_11_response <int>, item_11_correct <chr>, item_12_response <int>,
## #   item_12_correct <chr>, item_13_response <int>, item_13_correct <chr>,
## #   item_14_response <int>, item_14_correct <chr>, item_15_response <int>,
## #   item_15_correct <chr>, item_16_response <int>, item_16_correct <chr>,
## #   item_17_response <int>, item_17_correct <chr>, item_18_response <int>,
## #   item_18_correct <chr>, item_19_response <int>, item_19_correct <chr>,
## #   item_20_response <int>, item_20_correct <chr>

Create a new variable that represents the proportion of ELL students by grade

mcrc %>% 
  group_by(schid) %>% 
  mutate(prop_ell = mean(ell == "Y", na.rm = TRUE)) %>% 
  select(1:2, prop_ell) 

## # A tibble: 72,948 x 3
## # Groups:   schid [1,000]
##       id schid   prop_ell
##    <int> <int>      <dbl>
##  1  8307   381 0.07500000
##  2  8308   449 0.05747126
##  3  8309   817 0.07352941
##  4  8310   979 0.01408451
##  5  8311    13 0.08450704
##  6  8312   410 0.05128205
##  7  8313   529 0.16923077
##  8  8314   967 0.06818182
##  9  8315   589 0.07407407
## 10  8316   257 0.04347826
## # ... with 72,938 more rows

Order the data in ascending order

mcrc %>% 
  group_by(schid) %>% 
  mutate(prop_ell = mean(ell == "Y", na.rm = TRUE)) %>% 
  select(1:2, prop_ell) %>% 
  arrange(schid)

## # A tibble: 72,948 x 3
## # Groups:   schid [1,000]
##       id schid   prop_ell
##    <int> <int>      <dbl>
##  1  6644     1 0.01408451
##  2 20444     1 0.01408451
##  3  2065     1 0.01408451
##  4 21933     1 0.01408451
##  5 22696     1 0.01408451
##  6 11418     1 0.01408451
##  7  6254     1 0.01408451
##  8 25539     1 0.01408451
##  9 26493     1 0.01408451
## 10 25447     1 0.01408451
## # ... with 72,938 more rows

Order the data in descending order

mcrc %>% 
  group_by(schid) %>% 
  mutate(prop_ell = mean(ell == "Y", na.rm = TRUE)) %>% 
  select(1:2, prop_ell) %>% 
  arrange(desc(prop_ell))

## # A tibble: 72,948 x 3
## # Groups:   schid [1,000]
##       id schid  prop_ell
##    <int> <int>     <dbl>
##  1 20102   369 0.2083333
##  2 20183   369 0.2083333
##  3  9954   369 0.2083333
##  4 10028   369 0.2083333
##  5   848   369 0.2083333
##  6  4032   369 0.2083333
##  7  2038   369 0.2083333
##  8  2318   369 0.2083333
##  9 22285   369 0.2083333
## 10 11200   369 0.2083333
## # ... with 72,938 more rows

Center a variable (i.e., subtract the mean from each observation)

mcrc %>% 
  mutate(score = scale(score, scale = FALSE)) %>% 
  select(1:2, score)

## # A tibble: 72,948 x 3
##       id schid      score
##    <int> <int>      <dbl>
##  1  8307   381 -0.3585705
##  2  8308   449  1.6414295
##  3  8309   817  3.6414295
##  4  8310   979 -2.3585705
##  5  8311    13  3.6414295
##  6  8312   410  3.6414295
##  7  8313   529  0.6414295
##  8  8314   967 -5.3585705
##  9  8315   589 -6.3585705
## 10  8316   257  2.6414295
## # ... with 72,938 more rows

Quick note onmutate()

You can create a variable with mutate(), and then immediately call upon it for an additional calculation on the next line.

mcrc %>% 
  group_by(schid) %>% 
  mutate(sch_mean = mean(score, na.rm = TRUE),
         group_centered = score - sch_mean) %>% 
  select(1:2, sch_mean, score, group_centered)

## # A tibble: 72,948 x 5
## # Groups:   schid [1,000]
##       id schid sch_mean score group_centered
##    <int> <int>    <dbl> <int>          <dbl>
##  1  8307   381 13.96250    13      -0.962500
##  2  8308   449 13.67816    15       1.321839
##  3  8309   817 13.38235    17       3.617647
##  4  8310   979 13.12676    11      -2.126761
##  5  8311    13 13.33803    17       3.661972
##  6  8312   410 12.92308    17       4.076923
##  7  8313   529 13.20000    14       0.800000
##  8  8314   967 13.43182     8      -5.431818
##  9  8315   589 13.11111     7      -6.111111
## 10  8316   257 13.00000    16       3.000000
## # ... with 72,938 more rows

Compute the mean and standard deviation of a variable by one or more groups (e.g., mean math score for each school)

(I randomly assigned school ids, so the fact they are very similar is not terribly surprising)

mcrc %>% 
  group_by(schid) %>% 
  summarize(mean = mean(score, na.rm = TRUE),
            sd = sd(score, na.rm = TRUE))

## # A tibble: 1,000 x 3
##    schid     mean       sd
##    <int>    <dbl>    <dbl>
##  1     1 13.45070 3.790170
##  2     2 13.47945 4.140282
##  3     3 13.48438 3.690366
##  4     4 12.27419 4.316075
##  5     5 13.36000 4.138285
##  6     6 13.36709 3.800058
##  7     7 13.81081 3.662755
##  8     8 13.62069 4.020995
##  9     9 13.88889 3.605768
## 10    10 13.61290 3.856198
## # ... with 990 more rows
…
Remove the first five rows

Extract the first five rows

mcrc %>% 
  slice(-1:-5)

## # A tibble: 72,943 x 47
##       id schid                      race           ethnicity   ell
##    <int> <int>                     <chr>               <chr> <chr>
##  1  8312   410 Black or African American     Hispanic/Latino     Y
##  2  8313   529                     White Not Hispanic/Latino      
##  3  8314   967 Black or African American Not Hispanic/Latino      
##  4  8315   589 Black or African American Not Hispanic/Latino      
##  5  8316   257                   Unknown             Unknown      
##  6  8317   277                     White Not Hispanic/Latino      
##  7  8318    55                     White Not Hispanic/Latino      
##  8  8319   253                     White Not Hispanic/Latino      
##  9  8320   633                     White Not Hispanic/Latino      
## 10  8321   215                     White Not Hispanic/Latino      
## # ... with 72,933 more rows, and 42 more variables: disability <chr>,
## #   score <int>, item_1_response <int>, item_1_correct <chr>,
## #   item_2_response <int>, item_2_correct <chr>, item_3_response <int>,
## #   item_3_correct <chr>, item_4_response <int>, item_4_correct <chr>,
## #   item_5_response <int>, item_5_correct <chr>, item_6_response <int>,
## #   item_6_correct <chr>, item_7_response <int>, item_7_correct <chr>,
## #   item_8_response <int>, item_8_correct <chr>, item_9_response <int>,
## #   item_9_correct <chr>, item_10_response <int>, item_10_correct <chr>,
## #   item_11_response <int>, item_11_correct <chr>, item_12_response <int>,
## #   item_12_correct <chr>, item_13_response <int>, item_13_correct <chr>,
## #   item_14_response <int>, item_14_correct <chr>, item_15_response <int>,
## #   item_15_correct <chr>, item_16_response <int>, item_16_correct <chr>,
## #   item_17_response <int>, item_17_correct <chr>, item_18_response <int>,
## #   item_18_correct <chr>, item_19_response <int>, item_19_correct <chr>,
## #   item_20_response <int>, item_20_correct <chr>

distinct()

Select rows that are distinct, according to a specific variable

mcrc %>% 
  distinct(schid)

## # A tibble: 1,000 x 1
##    schid
##    <int>
##  1   381
##  2   449
##  3   817
##  4   979
##  5    13
##  6   410
##  7   529
##  8   967
##  9   589
## 10   257
## # ... with 990 more rows
…
Probably most frequently used for removing duplicate records, or for joins, which we haven’t talked about yet.

Also can be used to understand your data better

Number of rows from you output will be the number of distinct values (e.g., number of schools)

Can use distinct on multiple variable

How many unique race/ethnicity combinations are there?

mcrc %>% 
  distinct(race, ethnicity)

## # A tibble: 32 x 2
##                                 race           ethnicity
##                                <chr>               <chr>
##  1                             White Not Hispanic/Latino
##  2                                   Not Hispanic/Latino
##  3         Black or African American Not Hispanic/Latino
##  4         Black or African American     Hispanic/Latino
##  5                           Unknown             Unknown
##  6                             White     Hispanic/Latino
##  7                 Two or more races Not Hispanic/Latino
##  8                 Two or more races     Hispanic/Latino
##  9 American Indian or Alaskan Native Not Hispanic/Latino
## 10                             Asian Not Hispanic/Latino
## # ... with 22 more rows

Why is this helpful

Remove duplicate records (primary reason I find it helpful)

optional .keep_all argument

nrow(mcrc)

## [1] 72948

mcrc %>% 
  distinct(id, .keep_all = TRUE)

## # A tibble: 36,474 x 47
##       id schid                      race           ethnicity   ell
##    <int> <int>                     <chr>               <chr> <chr>
##  1  8307   381                     White Not Hispanic/Latino      
##  2  8308   449                           Not Hispanic/Latino      
##  3  8309   817                     White Not Hispanic/Latino      
##  4  8310   979 Black or African American Not Hispanic/Latino      
##  5  8311    13                     White Not Hispanic/Latino      
##  6  8312   410 Black or African American     Hispanic/Latino     Y
##  7  8313   529                     White Not Hispanic/Latino      
##  8  8314   967 Black or African American Not Hispanic/Latino      
##  9  8315   589 Black or African American Not Hispanic/Latino      
## 10  8316   257                   Unknown             Unknown      
## # ... with 36,464 more rows, and 42 more variables: disability <chr>,
## #   score <int>, item_1_response <int>, item_1_correct <chr>,
## #   item_2_response <int>, item_2_correct <chr>, item_3_response <int>,
## #   item_3_correct <chr>, item_4_response <int>, item_4_correct <chr>,
## #   item_5_response <int>, item_5_correct <chr>, item_6_response <int>,
## #   item_6_correct <chr>, item_7_response <int>, item_7_correct <chr>,
## #   item_8_response <int>, item_8_correct <chr>, item_9_response <int>,
## #   item_9_correct <chr>, item_10_response <int>, item_10_correct <chr>,
## #   item_11_response <int>, item_11_correct <chr>, item_12_response <int>,
…
