Interactions
…
--
* We need to `cut` the continuous variable into meaningful bins

--

```r
glo <- glo %>%
  mutate(intern_cut = cut(internalizing, 3),
         extern_cut = cut(externalizing, 3))
glo %>%
  select(internalizing, intern_cut, externalizing, extern_cut)
```

```
## # A tibble: 119 x 4
##    internalizing intern_cut externalizing extern_cut 
##            <dbl> <fct>              <dbl> <fct>      
##  1            16 (14,27]               12 (-0.054,18]
##  2             9 (0.961,14]            13 (-0.054,18]
##  3             3 (0.961,14]             0 (-0.054,18]
##  4            11 (0.961,14]            16 (-0.054,18]
##  5             9 (0.961,14]             1 (-0.054,18]
##  6             9 (0.961,14]             5 (-0.054,18]
##  7             9 (0.961,14]             6 (-0.054,18]
##  8             6 (0.961,14]             7 (-0.054,18]
##  9            19 (14,27]               18 (-0.054,18]
## 10            19 (14,27]               19 (18,36]    
## # ... with 109 more rows
```
…
