Exploring Geographic Variation in Achievement Gaps - Data Science in Education
…
      This is, basically, the third post in a series of posts about estimating and, now, exploring achievement gap variation between schools. The first post described the method, while the second applied the method to estimate achievement gaps for all schools reporting data on students coded as Hispanic and White in California. That post included some preliminary explorations of the data, but this post will take that further by looking at the variance geographically.

The Data

We’ll use the same data we used in the last post, which represents school-level Hispanic-White achievement gap effect sizes for every school reporting data on both groups in California. To avoid going through all the gymnastics of creating the dataset, though, I’ve posted a file to my website repo. The code below should allow you to read the data directly from the repo.

library(tidyverse)
tmpfile <- tempfile()
download.file("https://github.com/datalorax/site/raw/master/content/post/v.rds",
              tmpfile)

v <- read_rds(tmpfile)
v

## # A tibble: 36,345 x 7
##    county_code district_code school_code grade test_id       auc      v
##    <chr>       <chr>         <chr>       <dbl> <chr>       <dbl>  <dbl>
##  1 01          10017         0125567         3 ELA         0.252 -0.945
##  2 01          10017         0125567         3 Mathematics 0.308 -0.709
##  3 01          10017         0125567        13 ELA         0.313 -0.690
##  4 01          10017         0125567        13 Mathematics 0.304 -0.724
##  5 01          31617         0131763        11 ELA         0.347 -0.556
##  6 01          31617         0131763        11 Mathematics 0.454 -0.163
##  7 01          31617         0131763        13 ELA         0.429 -0.253
##  8 01          31617         0131763        13 Mathematics 0.458 -0.150
##  9 01          61119         0111765         3 ELA         0.417 -0.297
## 10 01          61119         0111765         3 Mathematics 0.264 -0.893
## # … with 36,335 more rows

As before, we have v, which is the achievement gap effect size, for each grade, in English/Language Arts (ELA) and Mathetmatics, for every school. Let’s calculate an average achivement gap across these variables so we have a single estimate for each school (we could, of course, explore them separately, but we’ll go with the average for now).

v <- v %>% 
  group_by(county_code, district_code, school_code) %>% 
  summarize(v = mean(v, na.rm = TRUE))

If we want to look at these data geographically, we need to geocode the schools. That is, we need to know the longitude and lattitude. Luckily for us, California supplies this information publicly here. The code below will load the text file into R. The data are tab delimited, which is why we use read_delim with the delimiter set to tabs, "\t"

schools <- read_delim("https://www.cde.ca.gov/schooldirectory/report?rid=dl1&tp=txt",
                      delim = "\t")
schools

## # A tibble: 18,061 x 51
##    CDSCode NCESDist NCESSchool StatusType County District School Street
##    <chr>   <chr>    <chr>      <chr>      <chr>  <chr>    <chr>  <chr> 
##  1 011001… 0691051  No Data    Active     Alame… Alameda… No Da… 313 W…
##  2 011001… 0691051  10546      Closed     Alame… Alameda… FAME … 39899…
##  3 011001… 0691051  10947      Active     Alame… Alameda… Envis… 1515 …
##  4 011001… 0691051  12283      Closed     Alame… Alameda… Aspir… 2125 …
##  5 011001… 0691051  12844      Active     Alame… Alameda… Commu… 2111 …
##  6 011001… 0691051  12901      Active     Alame… Alameda… Yu Mi… 1086 …
##  7 011001… 0691051  13008      Active     Alame… Alameda… Urban… 5328 …
##  8 011001… 0691051  13772      Active     Alame… Alameda… Epic … 1045 …
##  9 011001… 0691051  No Data    Closed     Alame… Alameda… Techn… 597 C…
## 10 011001… 0691051  09264      Active     Alame… Alameda… Alame… 2500 …
## # … with 18,051 more rows, and 43 more variables: StreetAbr <chr>,
## #   City <chr>, Zip <chr>, State <chr>, MailStreet <chr>,
## #   MailStrAbr <chr>, MailCity <chr>, MailZip <chr>, MailState <chr>,
## #   Phone <chr>, Ext <chr>, WebSite <chr>, OpenDate <chr>,
## #   ClosedDate <chr>, Charter <chr>, CharterNum <chr>, FundingType <chr>,
## #   DOC <chr>, DOCType <chr>, SOC <chr>, SOCType <chr>, EdOpsCode <chr>,
## #   EdOpsName <chr>, EILCode <chr>, EILName <chr>, GSoffered <chr>,
## #   GSserved <chr>, Virtual <chr>, Magnet <chr>, YearRoundYN <chr>,
## #   FederalDFCDistrictID <chr>, Latitude <chr>, Longitude <chr>,
…
And it does! A little sleuthing reveals that this id is the combination of county_code, district_code, and school_code in our v file. Let’s recreate this ID variable in v, then join the files. We could use tidyr::unite to create the ID variable, but I want to keep the individual variables here for reasons that will become apparent later on, so I’ll do it through a call to dplyr::mutate instead.

v <- v %>% 
  mutate(CDSCode = paste0(county_code, district_code, school_code))

# Limit `schools` to just the variables we really want
schools <- schools %>% 
  select(CDSCode, Longitude, Latitude)

d <- left_join(v, schools)
d

## # A tibble: 6,451 x 7
## # Groups:   county_code, district_code [849]
##    county_code district_code school_code      v CDSCode  Longitude Latitude
##    <chr>       <chr>         <chr>        <dbl> <chr>    <chr>     <chr>   
##  1 01          10017         0125567     -0.767 0110017… -122.189… 37.7783…
##  2 01          31617         0131763     -0.280 0131617… -121.965… 37.5589…
##  3 01          61119         0111765     -0.399 0161119… -122.286… 37.7818…
##  4 01          61119         0119222     -0.769 0161119… -122.287… 37.7790…
##  5 01          61119         0122085     -0.575 0161119… -122.285… 37.7764…
##  6 01          61119         0126656     -0.789 0161119… -122.271… 37.7727…
##  7 01          61119         0130229     -0.417 0161119… -122.245… 37.7649…
##  8 01          61119         0130609     -0.579 0161119… -122.287… 37.7790…
##  9 01          61119         0132142     -0.357 0161119… -122.289… 37.7727…
## 10 01          61119         0134304     -0.193 0161119… -122.281… 37.7757…
## # … with 6,441 more rows
…
