…
----
## Example
Load a sample of the ECLS-K dataset


```r
library(haven) # part of tidyverse so should already be installed
eclsk_haven <- read_sav("./data/ecls-k_samp.sav")
eclsk_haven
```

```
## # A tibble: 984 x 33
##    child_id teacher_id school_id    k_type school_type       sex    ethnic
##       <chr>      <chr>     <chr> <dbl+lbl>   <dbl+lbl> <dbl+lbl> <dbl+lbl>
##  1 0842021C    0842T02      0842         1           0         0         2
##  2 0905002C    0905T01      0905         1           1         0         5
##  3 0150012C    0150T01      0150         1           1         1         2
##  4 0556009C    0556T01      0556         1           1         1         4
##  5 0089013C    0089T04      0089         1           0         0         1
##  6 1217001C    1217T13      1217         0           0         1         6
##  7 1092008C    1092T01      1092         0           0         1         4
##  8 0083007C    0083T16      0083         1           0         0         1
##  9 1091005C    1091T02      1091         0           1         0         1
## 10 2006006C    2006T01      2006         1           1         0         1
## # ... with 974 more rows, and 26 more variables: famtype <dbl+lbl>,
## #   numsibs <dbl>, SES_cont <dbl>, SES_cat <dbl+lbl>, age <dbl>,
## #   T1RSCALE <dbl>, T1MSCALE <dbl>, T1GSCALE <dbl>, T2RSCALE <dbl>,
## #   T2MSCALE <dbl>, T2GSCALE <dbl>, IRTreadgain <dbl>, IRTmathgain <dbl>,
## #   IRTgkgain <dbl>, T1ARSLIT <dbl>, T1ARSMAT <dbl>, T1ARSGEN <dbl>,
## #   T2ARSLIT <dbl>, T2ARSMAT <dbl>, T2ARSGEN <dbl>, ARSlitgain <dbl>,
## #   ARSmathgain <dbl>, ARSgkgain <dbl>, testdate1 <date>,
## #   testdate2 <date>, elapse <dbl>
```
…
