Model assumptions & Diagnostics
…
# Diagnosing Assumptions

---
# .red[L]inearity

### Load the simulated data

```r
sim_data <- import(here("data", "simdata.csv"),
                   setclass = "tbl_df")
sim_data
```

```
## # A tibble: 505 x 2
##        x         y
##    <int>     <dbl>
##  1     0  0       
##  2     0  0       
##  3     0  0       
##  4     0  1.766497
##  5     0  0       
##  6     1 29.36648 
##  7     1 21.75338 
##  8     1 46.27026 
##  9     1 23.82996 
## 10     1 44.41550 
## # ... with 495 more rows
```
…
