Creating bivariate color palettes - Data Science in Education
…
Now we have a palette that we can use by just rescaling our observed data to the $[0, 1]$ range! Notice also that I made the x and y values characters rather than doubles to help with the joining that will come (i.e., only two decimals of precision).

Let’s try with the ggplot2::mpg data set, coloring the points according to their values on each axis. We’ll show the correlation between engine displacement (displ) and highway miles per gallon (hwy).

hwy_mpg <- mpg %>%
  mutate(x = as.character(round(scales::rescale(displ), 2)),
         y = as.character(round(scales::rescale(hwy), 2))) %>%
  left_join(pal_d) 
hwy_mpg

## # A tibble: 234 x 14
##    manufacturer model displ  year   cyl trans drv     cty   hwy fl    class
##    <chr>        <chr> <dbl> <int> <int> <chr> <chr> <int> <int> <chr> <chr>
##  1 audi         a4      1.8  1999     4 auto… f        18    29 p     comp…
##  2 audi         a4      1.8  1999     4 manu… f        21    29 p     comp…
##  3 audi         a4      2    2008     4 manu… f        20    31 p     comp…
##  4 audi         a4      2    2008     4 auto… f        21    30 p     comp…
##  5 audi         a4      2.8  1999     6 auto… f        16    26 p     comp…
##  6 audi         a4      2.8  1999     6 manu… f        18    26 p     comp…
##  7 audi         a4      3.1  2008     6 auto… f        18    27 p     comp…
##  8 audi         a4 q…   1.8  1999     4 manu… 4        18    26 p     comp…
##  9 audi         a4 q…   1.8  1999     4 auto… 4        16    25 p     comp…
## 10 audi         a4 q…   2    2008     4 manu… 4        20    28 p     comp…
## # … with 224 more rows, and 3 more variables: x <chr>, y <chr>, fill <chr>
…
