Multiple regression with R - Data Science in Education
…
install.packages(c("tidyverse", "rio", "devtools", "arm", "lm.beta", "visreg", "lme4"))

Step 0

Before fitting model, you’ll generally need to import some data, let’s do so now

Make sure your data file is stored in the same place that your script is

The setclass argument above is actually not required, but makes it a bit easier to work with.

library(rio)
d <- import("synthetic_data.csv", setclass = "tbl_df")
d

## # A tibble: 11,218 x 6
##         SID grade clock cohort  LD33    SS
##       <int> <int> <int>  <int> <chr> <int>
##  1  1243667     7     1      5 Never   238
##  2 12961647     6     0      7 Never   221
##  3  5477581     7     1      5 Never   224
##  4  4177568     8     2      5 Never   248
##  5  9368752     7     1      6 Never   239
##  6  7736290     7     1      7 Never   239
##  7  9486143     6     0      5 Never   220
##  8  6181953     7     1      5 Never   237
##  9  7966652     7     1      7 Never   234
## 10  7776640     7     1      6 Never   234
## # ... with 11,208 more rows
…
