More on Joins (lab) - Data Science in Education
…
## # A tibble: 0 x 2
## # ... with 2 variables: unitid <int>, n <int>

Joining

We have more than one column in common. Would it hurt to merge by all?

As long as the variables are the same thing and have the same values in both datasets, then it’s fine and even preferable to merge by all the variables. Otherwise, you’ll end up with .x and .y versions of the same thing.

left_join(scorecard, earnings, by = "unitid")

## # A tibble: 7,703 x 210
##    unitid opeid.x opeid6.x                            instnm.x
##     <int>   <int>    <int>                               <chr>
##  1 100654  100200     1002            Alabama A & M University
##  2 100663  105200     1052 University of Alabama at Birmingham
##  3 100690 2503400    25034                  Amridge University
##  4 100706  105500     1055 University of Alabama in Huntsville
##  5 100724  100500     1005            Alabama State University
##  6 100751  105100     1051           The University of Alabama
##  7 100760  100700     1007   Central Alabama Community College
##  8 100812  100800     1008             Athens State University
##  9 100830  831000     8310     Auburn University at Montgomery
## 10 100858  100900     1009                   Auburn University
## # ... with 7,693 more rows, and 206 more variables: city <chr>,
## #   stabbr <chr>, insturl <chr>, npcurl <chr>, hcm2 <int>, preddeg <int>,
## #   control <int>, locale <int>, hbcu <int>, pbi <int>, annhi <int>,
## #   tribal <int>, aanapii <int>, hsi <int>, nanti <int>, menonly <int>,
## #   womenonly <int>, relaffil <int>, satvr25 <int>, satvr75 <int>,
## #   satmt25 <int>, satmt75 <int>, satwr25 <int>, satwr75 <int>,
## #   satvrmid <int>, satmtmid <int>, satwrmid <int>, actcm25 <int>,
## #   actcm75 <int>, acten25 <int>, acten75 <int>, actmt25 <int>,
## #   actmt75 <int>, actwr25 <int>, actwr75 <int>, actcmmid <int>,
…
Join by all variables in common

joined <- left_join(scorecard, earnings)

## Joining, by = c("unitid", "opeid", "opeid6", "instnm", "md_earn_wne_p10", "gt_25k_p6")

joined

## # A tibble: 7,703 x 205
##    unitid   opeid opeid6                              instnm
##     <int>   <int>  <int>                               <chr>
##  1 100654  100200   1002            Alabama A & M University
##  2 100663  105200   1052 University of Alabama at Birmingham
##  3 100690 2503400  25034                  Amridge University
##  4 100706  105500   1055 University of Alabama in Huntsville
##  5 100724  100500   1005            Alabama State University
##  6 100751  105100   1051           The University of Alabama
##  7 100760  100700   1007   Central Alabama Community College
##  8 100812  100800   1008             Athens State University
##  9 100830  831000   8310     Auburn University at Montgomery
## 10 100858  100900   1009                   Auburn University
## # ... with 7,693 more rows, and 201 more variables: city <chr>,
## #   stabbr <chr>, insturl <chr>, npcurl <chr>, hcm2 <int>, preddeg <int>,
## #   control <int>, locale <int>, hbcu <int>, pbi <int>, annhi <int>,
## #   tribal <int>, aanapii <int>, hsi <int>, nanti <int>, menonly <int>,
## #   womenonly <int>, relaffil <int>, satvr25 <int>, satvr75 <int>,
## #   satmt25 <int>, satmt75 <int>, satwr25 <int>, satwr75 <int>,
## #   satvrmid <int>, satmtmid <int>, satwrmid <int>, actcm25 <int>,
## #   actcm75 <int>, acten25 <int>, acten75 <int>, actmt25 <int>,
## #   actmt75 <int>, actwr25 <int>, actwr75 <int>, actcmmid <int>,
…
25th, Median (50th) and 75th percentiles of earnings for students 10 years after entry

count_ed

Count of students in the earnings cohort

unitid

Keyed variable

earnings_small <- earnings %>% 
  select(1, count_ed, pct25_earn_wne_p10, md_earn_wne_p10, pct75_earn_wne_p10)  
earnings_small

## # A tibble: 7,703 x 5
##    unitid count_ed pct25_earn_wne_p10 md_earn_wne_p10 pct75_earn_wne_p10
##     <int>    <int>              <int>           <int>              <int>
##  1 100654     1277              17500           30300              46600
##  2 100663     2831              24400           39700              56500
##  3 100690      191              22900           40100              57900
##  4 100706     1361              25900           45500              69500
##  5 100724     1609              14600           26600              40600
##  6 100751     4210              27600           41900              61300
##  7 100760     1091              15500           27500              41400
##  8 100812     1144              25400           39000              49800
##  9 100830     1178              20100           35000              49200
## 10 100858     3536              30500           45700              66900
## # ... with 7,693 more rows

From scorecard

SAT percentile variables (25th, 50th, and 75th; exclude averages)

UNITID

Keyed variable

scorecard_small <- scorecard %>% 
  select(1, contains("sat")) %>% 
  select(-contains("avg"))
scorecard_small

## # A tibble: 7,703 x 10
##    unitid satvr25 satvr75 satmt25 satmt75 satwr25 satwr75 satvrmid
##     <int>   <int>   <int>   <int>   <int>   <int>   <int>    <int>
##  1 100654     377     470     370     470     370     470      424
##  2 100663     500     640     490     640      NA      NA      570
##  3 100690      NA      NA      NA      NA      NA      NA       NA
##  4 100706     520     670     530     650      NA      NA      595
##  5 100724     380     470     380     480      NA      NA      425
##  6 100751     490     620     500     630     480     600      555
##  7 100760      NA      NA      NA      NA      NA      NA       NA
##  8 100812      NA      NA      NA      NA      NA      NA       NA
##  9 100830     433     538     468     550      NA      NA      486
## 10 100858     520     630     530     645     520     610      575
## # ... with 7,693 more rows, and 2 more variables: satmtmid <int>,
## #   satwrmid <int>
…
Take it from here: Tidy then join! (15-20 minutes)

Tidy earnings

earnings_tidy <- earnings_small %>% 
  gather(var, earnings, -1:-2) %>% 
  separate(var, c("ptile", "dis1", "dis2", "dis3"), sep = "_") %>% 
  mutate(ptile = ifelse(ptile == "md", "50", ptile),
         ptile = parse_number(ptile)) %>% 
  select(-contains("dis"))
earnings_tidy

## # A tibble: 23,109 x 4
##    unitid count_ed ptile earnings
##     <int>    <int> <dbl>    <int>
##  1 100654     1277    25    17500
##  2 100663     2831    25    24400
##  3 100690      191    25    22900
##  4 100706     1361    25    25900
##  5 100724     1609    25    14600
##  6 100751     4210    25    27600
##  7 100760     1091    25    15500
##  8 100812     1144    25    25400
##  9 100830     1178    25    20100
## 10 100858     3536    25    30500
## # ... with 23,099 more rows

Tidy scorecard

scorecard_tidy <- scorecard_small %>% 
  gather(var, sat, -1) %>% 
  separate(var, c("dis", "tmp"), 3) %>% 
  separate(tmp, c("test", "ptile"), 2) %>% 
  mutate(ptile = as.numeric(recode(ptile, "mid" = "50"))) %>% 
  select(-dis)
scorecard_tidy

## # A tibble: 69,327 x 4
##    unitid  test ptile   sat
##     <int> <chr> <dbl> <int>
##  1 100654    vr    25   377
##  2 100663    vr    25   500
##  3 100690    vr    25    NA
##  4 100706    vr    25   520
##  5 100724    vr    25   380
##  6 100751    vr    25   490
##  7 100760    vr    25    NA
##  8 100812    vr    25    NA
##  9 100830    vr    25   433
## 10 100858    vr    25   520
## # ... with 69,317 more rows

Join!

td <- left_join(earnings_tidy, scorecard_tidy)

## Joining, by = c("unitid", "ptile")

td

## # A tibble: 69,327 x 6
##    unitid count_ed ptile earnings  test   sat
##     <int>    <int> <dbl>    <int> <chr> <int>
##  1 100654     1277    25    17500    vr   377
##  2 100654     1277    25    17500    mt   370
##  3 100654     1277    25    17500    wr   370
##  4 100663     2831    25    24400    vr   500
##  5 100663     2831    25    24400    mt   490
##  6 100663     2831    25    24400    wr    NA
##  7 100690      191    25    22900    vr    NA
##  8 100690      191    25    22900    mt    NA
##  9 100690      191    25    22900    wr    NA
## 10 100706     1361    25    25900    vr   520
## # ... with 69,317 more rows
…
Remove University of Phoenix Schools

td <- anti_join(td, huge)

## Joining, by = "unitid"

td

## # A tibble: 69,156 x 6
##    unitid count_ed ptile earnings  test   sat
##     <int>    <int> <dbl>    <int> <chr> <int>
##  1 100654     1277    25    17500    vr   377
##  2 100654     1277    25    17500    mt   370
##  3 100654     1277    25    17500    wr   370
##  4 100663     2831    25    24400    vr   500
##  5 100663     2831    25    24400    mt   490
##  6 100663     2831    25    24400    wr    NA
##  7 100690      191    25    22900    vr    NA
##  8 100690      191    25    22900    mt    NA
##  9 100690      191    25    22900    wr    NA
## 10 100706     1361    25    25900    vr   520
## # ... with 69,146 more rows
…
Try it

Limit to Oregon

or_schools <- scorecard %>% 
  select(1, stabbr) %>% 
  filter(stabbr == "OR")

or <- semi_join(td, or_schools)

## Joining, by = "unitid"

or

## # A tibble: 846 x 6
##    unitid count_ed ptile earnings  test   sat
##     <int>    <int> <dbl>    <int> <chr> <int>
##  1 208080       73    25       NA    vr    NA
##  2 208080       73    25       NA    mt    NA
##  3 208080       73    25       NA    wr    NA
##  4 208123       68    25       NA    vr    NA
##  5 208123       68    25       NA    mt    NA
##  6 208123       68    25       NA    wr    NA
##  7 208187       NA    25       NA    vr    NA
##  8 208187       NA    25       NA    mt    NA
##  9 208187       NA    25       NA    wr    NA
## 10 208239     1020    25    17200    vr    NA
## # ... with 836 more rows
…
