Dealing with collinearity and non-linearity
…
---
# Two ways to model a quadratic

* First, create a variable that is the squared version of the variable

```r
d <- d %>%
	mutate(x2 = x^2)
d
```

```
## # A tibble: 505 x 3
##        x         y    x2
##    <int>     <dbl> <dbl>
##  1     0  0            0
##  2     0  0            0
##  3     0  0            0
##  4     0  1.766497     0
##  5     0  0            0
##  6     1 29.36648      1
##  7     1 21.75338      1
##  8     1 46.27026      1
##  9     1 23.82996      1
## 10     1 44.41550      1
## # ... with 495 more rows
```
…
---
# Log

```r
elemapi <- elemapi %>%
	mutate(log_mobility = log(mobility)) 

elemapi %>%
	select(mobility, log_mobility)
```

```
## # A tibble: 399 x 2
##    mobility log_mobility
##       <dbl>        <dbl>
##  1       11     2.397895
##  2       33     3.496508
##  3       36     3.583519
##  4       27     3.295837
##  5       44     3.784190
##  6       10     2.302585
##  7       16     2.772589
##  8       44     3.784190
##  9       10     2.302585
## 10       17     2.833213
## # ... with 389 more rows
```
…
