Introduction to tidy data
…
---
# Common ways data are "messy"
* Column headers are values, not variable names
* Multiple variables stored in one column
* Variables are stored in both rows and columns

---
# Some examples
.gray[(from the JSS paper)]

```
## # A tibble: 18 x 11
##    religion      `<$10k` `$10-20k` `$20-30k` `$30-40k` `$40-50k` `$50-75k`
##    <chr>           <int>     <int>     <int>     <int>     <int>     <int>
##  1 Agnostic           27        34        60        81        76       137
##  2 Atheist            12        27        37        52        35        70
##  3 Buddhist           27        21        30        34        33        58
##  4 Catholic          418       617       732       670       638      1116
##  5 Don’t know/r…      15        14        15        11        10        35
##  6 Evangelical …     575       869      1064       982       881      1486
##  7 Hindu               1         9         7         9        11        34
##  8 Historically…     228       244       236       238       197       223
##  9 Jehovah's Wi…      20        27        24        24        21        30
## 10 Jewish             19        19        25        25        30        95
## # ... with 8 more rows, and 4 more variables: `$75-100k` <int>,
## #   `$100-150k` <int>, `>150k` <int>, `Don't know/refused` <int>
```

---
# The tidied version

```
## # A tibble: 180 x 3
##    religion income              freq
##    <chr>    <fct>              <int>
##  1 Agnostic <$10k                 27
##  2 Agnostic $10-20k               34
##  3 Agnostic $20-30k               60
##  4 Agnostic $30-40k               81
##  5 Agnostic $40-50k               76
##  6 Agnostic $50-75k              137
##  7 Agnostic $75-100k             122
##  8 Agnostic $100-150k            109
##  9 Agnostic >150k                 84
## 10 Agnostic Don't know/refused    96
## 11 Atheist  <$10k                 12
## 12 Atheist  $10-20k               27
## # ... with 168 more rows
```
…
In this example, *M* indicates if the data came from a male, while *F* indicates female. The subsequent numbers represent the age range. Tidying these data will be a two step process.

---
## Step one

```
## # A tibble: 2,814 x 4
##    country  year variable cases
##    <chr>   <int> <chr>    <int>
##  1 AD       2000 m014         0
##  2 AE       2000 m014         2
##  3 AF       2000 m014        52
##  4 AG       2000 m014         0
##  5 AL       2000 m014         2
##  6 AM       2000 m014         2
##  7 AN       2000 m014         0
##  8 AO       2000 m014       186
##  9 AR       2000 m014        97
## 10 AS       2000 m014        NA
## # ... with 2,804 more rows
```
Notice this is much closer to what we want, but we have a problem now in that we have **two variables stored in one column**.

---
## Step two: Tidied data

```
## # A tibble: 2,259 x 5
##    country  year sex   age_range cases
##    <chr>   <int> <chr> <chr>     <int>
##  1 AD       2000 m     0-14          0
##  2 AD       2000 m     15-24         0
##  3 AD       2000 m     25-34         1
##  4 AD       2000 m     35-44         0
##  5 AD       2000 m     45-54         0
##  6 AD       2000 m     55-64         0
##  7 AD       2000 m     65+           0
##  8 AE       2000 m     0-14          2
##  9 AE       2000 m     15-24         4
## 10 AE       2000 m     25-34         4
## # ... with 2,249 more rows
```

---
## Variables as rows and columns

```
## # A tibble: 22 x 35
##    id       year month element    d1    d2    d3    d4    d5    d6    d7
##    <chr>   <int> <int> <chr>   <dbl> <dbl> <dbl> <dbl> <dbl> <dbl> <dbl>
##  1 MX17004  2010     1 tmax       NA  NA    NA      NA  NA      NA    NA
##  2 MX17004  2010     1 tmin       NA  NA    NA      NA  NA      NA    NA
##  3 MX17004  2010     2 tmax       NA  27.3  24.1    NA  NA      NA    NA
##  4 MX17004  2010     2 tmin       NA  14.4  14.4    NA  NA      NA    NA
##  5 MX17004  2010     3 tmax       NA  NA    NA      NA  32.1    NA    NA
##  6 MX17004  2010     3 tmin       NA  NA    NA      NA  14.2    NA    NA
##  7 MX17004  2010     4 tmax       NA  NA    NA      NA  NA      NA    NA
##  8 MX17004  2010     4 tmin       NA  NA    NA      NA  NA      NA    NA
##  9 MX17004  2010     5 tmax       NA  NA    NA      NA  NA      NA    NA
## 10 MX17004  2010     5 tmin       NA  NA    NA      NA  NA      NA    NA
## # ... with 12 more rows, and 24 more variables: d8 <dbl>, d9 <dbl>,
## #   d10 <dbl>, d11 <dbl>, d12 <dbl>, d13 <dbl>, d14 <dbl>, d15 <dbl>,
## #   d16 <dbl>, d17 <dbl>, d18 <dbl>, d19 <dbl>, d20 <dbl>, d21 <dbl>,
## #   d22 <dbl>, d23 <dbl>, d24 <dbl>, d25 <dbl>, d26 <dbl>, d27 <dbl>,
## #   d28 <dbl>, d29 <dbl>, d30 <dbl>, d31 <dbl>
```

---
## Two Steps

### Step 1

```
## # A tibble: 66 x 6
##    id       year month element day_key value
##    <chr>   <int> <int> <chr>   <chr>   <dbl>
##  1 MX17004  2010    12 tmax    d1       29.9
##  2 MX17004  2010    12 tmin    d1       13.8
##  3 MX17004  2010     2 tmax    d2       27.3
##  4 MX17004  2010     2 tmin    d2       14.4
##  5 MX17004  2010    11 tmax    d2       31.3
##  6 MX17004  2010    11 tmin    d2       16.3
##  7 MX17004  2010     2 tmax    d3       24.1
##  8 MX17004  2010     2 tmin    d3       14.4
##  9 MX17004  2010     7 tmax    d3       28.6
## 10 MX17004  2010     7 tmin    d3       17.5
## # ... with 56 more rows
```

---
### Step 2

```
## # A tibble: 33 x 4
##    id      date         tmax  tmin
##    <chr>   <chr>       <dbl> <dbl>
##  1 MX17004 2010-01-01 27.8    14.5
##  2 MX17004 2010-02-02 29.7    13.4
##  3 MX17004 2010-02-02 27.3    14.4
##  4 MX17004 2010-02-02 29.9    10.7
##  5 MX17004 2010-02-02 24.1    14.4
##  6 MX17004 2010-03-03 34.5    16.8
##  7 MX17004 2010-03-03 31.1    17.6
##  8 MX17004 2010-03-03 32.1    14.2
##  9 MX17004 2010-04-04 36.300  16.7
## 10 MX17004 2010-05-05 33.2    18.2
## # ... with 23 more rows
```
…
---
# Pop Quiz Time
* Are these data tidy?
* If not, what needs to happen to make them tidy?
* What are the variables? What are the values?

```
## # A tibble: 35 x 20
##    stu_name gender item_1 item_2 item_3 item_4 item_5 item_6 item_7 item_8
##    <chr>    <chr>   <int>  <int>  <int>  <int>  <int>  <int>  <int>  <int>
##  1 Adam     M           1      1      1      1      1      1      1      0
##  2 Anne     F           1      1      1      1      1      1      1      1
##  3 Audrey   F           1      1      1      1      1      1      1      1
##  4 Barbara  F           1      1      1      1      0      0      1      0
##  5 Bert     M           1      1      1      1      1      0      1      0
##  6 Betty    F           1      1      1      1      1      1      1      1
##  7 Blaise   M           1      1      1      1      1      1      1      1
##  8 Brenda   F           1      1      1      1      1      1      1      1
##  9 Britton  F           1      1      1      0      1      1      1      1
## 10 Carol    F           1      1      1      1      0      0      1      0
## # ... with 25 more rows, and 10 more variables: item_9 <int>,
## #   item_10 <int>, item_11 <int>, item_12 <int>, item_13 <int>,
## #   item_14 <int>, item_15 <int>, item_16 <int>, item_17 <int>,
## #   item_18 <int>
```
…
* Third argument to `...` says we want to omit the first and second columns in when gathering.

<br>

What do you get? Are these data tidy now?

---
* The code on the previous slide basically puts our data in a tidy format. 
* To "clean up" some, could transform the `item` variable to numeric

```
## # A tibble: 630 x 4
##    stu_name gender item   score
##    <chr>    <chr>  <chr>  <int>
##  1 Adam     M      item_1     1
##  2 Anne     F      item_1     1
##  3 Audrey   F      item_1     1
##  4 Barbara  F      item_1     1
##  5 Bert     M      item_1     1
##  6 Betty    F      item_1     1
##  7 Blaise   M      item_1     1
##  8 Brenda   F      item_1     1
##  9 Britton  F      item_1     1
## 10 Carol    F      item_1     1
## # ... with 620 more rows
```
…
```r
td %>% 
  group_by(item, gender) %>% 
  summarize(prop = mean(score))
```

```
## # A tibble: 36 x 3
## # Groups:   item [?]
##    item  gender       prop
##    <chr> <chr>       <dbl>
##  1 1     F      1         
##  2 1     M      1         
##  3 10    F      0.7222222 
##  4 10    M      0.6470588 
##  5 11    F      0.05555556
##  6 11    M      0.6470588 
##  7 12    F      0         
##  8 12    M      0.3529412 
##  9 13    F      0.2222222 
## 10 13    M      0.1764706 
## # ... with 26 more rows
```
…
---
# Calculate Raw Scores
Modify the prior code to:
* `group_by` *stu_name* (rather than *item*)
* `sum` score (rather than average it with `mean`)

```r
td %>% 
  group_by(stu_name) %>% 
  summarize(raw_score = sum(score))
```

```
## # A tibble: 35 x 2
##    stu_name raw_score
##    <chr>        <int>
##  1 Adam             7
##  2 Anne            10
##  3 Audrey          11
##  4 Barbara          6
##  5 Bert             8
##  6 Betty            9
##  7 Blaise          13
##  8 Brenda          10
##  9 Britton          8
## 10 Carol            6
## # ... with 25 more rows
```

---
# Calculate percent correct

```r
td %>% 
  group_by(stu_name) %>% 
  summarize(total_poss = max(n()),
            raw_score = sum(score),
            pct_correct = raw_score / total_poss)
```

```
## # A tibble: 35 x 4
##    stu_name total_poss raw_score pct_correct
##    <chr>         <int>     <int>       <dbl>
##  1 Adam             18         7   0.3888889
##  2 Anne             18        10   0.5555556
##  3 Audrey           18        11   0.6111111
##  4 Barbara          18         6   0.3333333
##  5 Bert             18         8   0.4444444
##  6 Betty            18         9   0.5      
##  7 Blaise           18        13   0.7222222
##  8 Brenda           18        10   0.5555556
##  9 Britton          18         8   0.4444444
## 10 Carol            18         6   0.3333333
## # ... with 25 more rows
```
…
---
## Variable names include data

```r
ld %>% 
* gather(var, score, -1)
```

```
## # A tibble: 40 x 3
##      sid var         score
##    <int> <chr>       <dbl>
##  1     1 wave_1_math    95
##  2     2 wave_1_math   101
##  3     3 wave_1_math    99
##  4     4 wave_1_math   109
##  5     5 wave_1_math   101
##  6     1 wave_2_math    98
##  7     2 wave_2_math   103
##  8     3 wave_2_math   103
##  9     4 wave_2_math   111
## 10     5 wave_2_math   104
## # ... with 30 more rows
```

---

```r
ld %>% 
  gather(var, score, -1) %>% 
* separate(var,
*          c("dis", "wave", "subject"),
*          sep = "_",
*          convert = TRUE)
```

```
## # A tibble: 40 x 5
##      sid dis    wave subject score
##    <int> <chr> <int> <chr>   <dbl>
##  1     1 wave      1 math       95
##  2     2 wave      1 math      101
##  3     3 wave      1 math       99
##  4     4 wave      1 math      109
##  5     5 wave      1 math      101
##  6     1 wave      2 math       98
##  7     2 wave      2 math      103
##  8     3 wave      2 math      103
##  9     4 wave      2 math      111
## 10     5 wave      2 math      104
## # ... with 30 more rows
```
…
```r
tidy_ld <- ld %>% 
  gather(var, score, -1) %>% 
  separate(var, 
           c("dis", "wave", "subject"), 
           sep = "_", 
           convert = TRUE) %>%
  select(-dis) 

tidy_ld
```

```
## # A tibble: 40 x 4
##      sid  wave subject score
##    <int> <int> <chr>   <dbl>
##  1     1     1 math       95
##  2     2     1 math      101
##  3     3     1 math       99
##  4     4     1 math      109
##  5     5     1 math      101
##  6     1     2 math       98
##  7     2     2 math      103
##  8     3     2 math      103
##  9     4     2 math      111
## 10     5     2 math      104
## # ... with 30 more rows
```
…
---
## Spread *td*

Reminder what the tidy data look like

```
## # A tibble: 630 x 4
##    stu_name gender item  score
##    <chr>    <chr>  <chr> <int>
##  1 Adam     M      1         1
##  2 Anne     F      1         1
##  3 Audrey   F      1         1
##  4 Barbara  F      1         1
##  5 Bert     M      1         1
##  6 Betty    F      1         1
##  7 Blaise   M      1         1
##  8 Brenda   F      1         1
##  9 Britton  F      1         1
## 10 Carol    F      1         1
## # ... with 620 more rows
```

---

```r
s_d <- td %>% 
  spread(item, score)

s_d
```

```
## # A tibble: 35 x 20
##    stu_name gender   `1`  `10`  `11`  `12`  `13`  `14`  `15`  `16`  `17`
##    <chr>    <chr>  <int> <int> <int> <int> <int> <int> <int> <int> <int>
##  1 Adam     M          1     0     0     0     0     0     0     0     0
##  2 Anne     F          1     1     0     0     0     0     0     0     0
##  3 Audrey   F          1     1     0     0     1     0     0     0     0
##  4 Barbara  F          1     1     0     0     0     0     0     0     0
##  5 Bert     M          1     1     0     0     0     0     0     0     0
##  6 Betty    F          1     0     0     0     0     0     0     0     0
##  7 Blaise   M          1     1     1     1     1     0     0     0     0
##  8 Brenda   F          1     1     0     0     0     0     0     0     0
##  9 Britton  F          1     0     0     0     0     0     0     0     0
## 10 Carol    F          1     0     0     0     0     0     0     0     0
## # ... with 25 more rows, and 9 more variables: `18` <int>, `2` <int>,
## #   `3` <int>, `4` <int>, `5` <int>, `6` <int>, `7` <int>, `8` <int>,
## #   `9` <int>
```
…
---
## First `gather` all vars

```r
sim2 %>% 
    gather(var, val, -1)
```

```
## # A tibble: 1,800 x 3
##      SID var     val  
##    <int> <chr>   <chr>
##  1     1 male_g6 0    
##  2     2 male_g6 1    
##  3     3 male_g6 1    
##  4     4 male_g6 1    
##  5     5 male_g6 0    
##  6     6 male_g6 1    
##  7     7 male_g6 1    
##  8     8 male_g6 0    
##  9     9 male_g6 0    
## 10    10 male_g6 1    
## # ... with 1,790 more rows
```

---
## Next, `separate`

```r
sim2 %>% 
    gather(var, val, -1) %>% 
    separate(var, c("var", "grade"), sep = "_")
```

```
## # A tibble: 1,800 x 4
##      SID var   grade val  
##    <int> <chr> <chr> <chr>
##  1     1 male  g6    0    
##  2     2 male  g6    1    
##  3     3 male  g6    1    
##  4     4 male  g6    1    
##  5     5 male  g6    0    
##  6     6 male  g6    1    
##  7     7 male  g6    1    
##  8     8 male  g6    0    
##  9     9 male  g6    0    
## 10    10 male  g6    1    
## # ... with 1,790 more rows
```

---
## Parse Numeric

```r
sim2 %>% 
    gather(var, val, -1) %>% 
    separate(var, c("var", "grade"), sep = "_") %>% 
    mutate(grade = parse_number(grade))
```

```
## # A tibble: 1,800 x 4
##      SID var   grade val  
##    <int> <chr> <dbl> <chr>
##  1     1 male      6 0    
##  2     2 male      6 1    
##  3     3 male      6 1    
##  4     4 male      6 1    
##  5     5 male      6 0    
##  6     6 male      6 1    
##  7     7 male      6 1    
##  8     8 male      6 0    
##  9     9 male      6 0    
## 10    10 male      6 1    
## # ... with 1,790 more rows
```

---
## `spread` for final produce

```r
sim2 %>% 
    gather(var, val, -1) %>% 
    separate(var, c("var", "grade"), sep = "_") %>% 
    mutate(grade = parse_number(grade)) %>% 
    spread(var, val)
```

```
## # A tibble: 300 x 8
##      SID grade disability ell   male  pullouts score            sped 
##    <int> <dbl> <chr>      <chr> <chr> <chr>    <chr>            <chr>
##  1     1     6 none       0     0     0        208.434415681363 0    
##  2     1     7 none       0     0     0        212.52698033647  0    
##  3     1     8 none       0     0     0        219.999423463527 0    
##  4     2     6 none       0     1     0        193.235211343351 0    
##  5     2     7 none       0     1     0        200.918088606708 0    
##  6     2     8 none       0     1     0        205.561434813331 0    
##  7     3     6 asd        1     1     0        196.085670969229 0    
##  8     3     7 asd        1     1     0        203.05758537086  0    
##  9     3     8 asd        1     1     0        210.530524529609 0    
## 10     4     6 none       0     1     0        204.049406440706 0    
## # ... with 290 more rows
```
…
