Intro to tidy data - Data Science in Education
…
What if we wanted to know the proportion correct for each item by gender?

td %>% 
  group_by(item, gender) %>% 
  summarize(prop = mean(score))

## # A tibble: 36 x 3
## # Groups:   item [?]
##     item gender       prop
##    <chr>  <chr>      <dbl>
##  1     1      F 1.00000000
##  2     1      M 1.00000000
##  3    10      F 0.72222222
##  4    10      M 0.64705882
##  5    11      F 0.05555556
##  6    11      M 0.64705882
##  7    12      F 0.00000000
##  8    12      M 0.35294118
##  9    13      F 0.22222222
## 10    13      M 0.17647059
## # ... with 26 more rows
…
If you’re successful, try to also calculate the percent correct.

Calculate Raw Scores

Modify the prior code to:

group_by stu_name (rather than item)

sum score (rather than average it with mean)

td %>% 
  group_by(stu_name) %>% 
  summarize(raw_score = sum(score))

## # A tibble: 35 x 2
##    stu_name raw_score
##       <chr>     <int>
##  1     Adam         7
##  2     Anne        10
##  3   Audrey        11
##  4  Barbara         6
##  5     Bert         8
##  6    Betty         9
##  7   Blaise        13
##  8   Brenda        10
##  9  Britton         8
## 10    Carol         6
## # ... with 25 more rows

Calculate percent correct

td %>% 
  group_by(stu_name) %>% 
  summarize(total_poss = max(n()),
            raw_score = sum(score),
            pct_correct = raw_score / total_poss)

## # A tibble: 35 x 4
##    stu_name total_poss raw_score pct_correct
##       <chr>      <int>     <int>       <dbl>
##  1     Adam         18         7   0.3888889
##  2     Anne         18        10   0.5555556
##  3   Audrey         18        11   0.6111111
##  4  Barbara         18         6   0.3333333
##  5     Bert         18         8   0.4444444
##  6    Betty         18         9   0.5000000
##  7   Blaise         18        13   0.7222222
##  8   Brenda         18        10   0.5555556
##  9  Britton         18         8   0.4444444
## 10    Carol         18         6   0.3333333
## # ... with 25 more rows
…
First gather all vars

d %>% 
    gather(var, val, -1)

## # A tibble: 1,800 x 3
##      SID     var   val
##    <int>   <chr> <chr>
##  1     1 male_g6     0
##  2     2 male_g6     1
##  3     3 male_g6     1
##  4     4 male_g6     1
##  5     5 male_g6     0
##  6     6 male_g6     1
##  7     7 male_g6     1
##  8     8 male_g6     0
##  9     9 male_g6     0
## 10    10 male_g6     1
## # ... with 1,790 more rows

Next, separate

d %>% 
    gather(var, val, -1) %>% 
    separate(var, c("var", "grade"), sep = "_")

## # A tibble: 1,800 x 4
##      SID   var grade   val
##  * <int> <chr> <chr> <chr>
##  1     1  male    g6     0
##  2     2  male    g6     1
##  3     3  male    g6     1
##  4     4  male    g6     1
##  5     5  male    g6     0
##  6     6  male    g6     1
##  7     7  male    g6     1
##  8     8  male    g6     0
##  9     9  male    g6     0
## 10    10  male    g6     1
## # ... with 1,790 more rows

Parse Numeric

d %>% 
    gather(var, val, -1) %>% 
    separate(var, c("var", "grade"), sep = "_") %>% 
    mutate(grade = parse_number(grade))

## # A tibble: 1,800 x 4
##      SID   var grade   val
##    <int> <chr> <dbl> <chr>
##  1     1  male     6     0
##  2     2  male     6     1
##  3     3  male     6     1
##  4     4  male     6     1
##  5     5  male     6     0
##  6     6  male     6     1
##  7     7  male     6     1
##  8     8  male     6     0
##  9     9  male     6     0
## 10    10  male     6     1
## # ... with 1,790 more rows

spread for final produce

d %>% 
    gather(var, val, -1) %>% 
    separate(var, c("var", "grade"), sep = "_") %>% 
    mutate(grade = parse_number(grade)) %>% 
    spread(var, val)

## # A tibble: 300 x 8
##      SID grade disability   ell  male pullouts            score  sped
##  * <int> <dbl>      <chr> <chr> <chr>    <chr>            <chr> <chr>
##  1     1     6       none     0     0        0 208.434415681363     0
##  2     1     7       none     0     0        0  212.52698033647     0
##  3     1     8       none     0     0        0 219.999423463527     0
##  4     2     6       none     0     1        0 193.235211343351     0
##  5     2     7       none     0     1        0 200.918088606708     0
##  6     2     8       none     0     1        0 205.561434813331     0
##  7     3     6        asd     1     1        0 196.085670969229     0
##  8     3     7        asd     1     1        0  203.05758537086     0
##  9     3     8        asd     1     1        0 210.530524529609     0
## 10     4     6       none     0     1        0 204.049406440706     0
## # ... with 290 more rows
…
