…
----
## GSS
General Social Survey
* We dealt with some of these data for a homework. 
* Unbeknownst to me, Hadley also included a sample in the *forcats* dataset


```r
gss_cat
```

```
## # A tibble: 21,483 x 9
##     year       marital   age   race        rincome            partyid
##    <int>        <fctr> <int> <fctr>         <fctr>             <fctr>
##  1  2000 Never married    26  White  $8000 to 9999       Ind,near rep
##  2  2000      Divorced    48  White  $8000 to 9999 Not str republican
##  3  2000       Widowed    67  White Not applicable        Independent
##  4  2000 Never married    39  White Not applicable       Ind,near rep
##  5  2000      Divorced    25  White Not applicable   Not str democrat
##  6  2000       Married    25  White $20000 - 24999    Strong democrat
##  7  2000 Never married    36  White $25000 or more Not str republican
##  8  2000      Divorced    44  White  $7000 to 7999       Ind,near dem
##  9  2000       Married    44  White $25000 or more   Not str democrat
## 10  2000       Married    47  White $25000 or more  Strong republican
## # ... with 21,473 more rows, and 3 more variables: relig <fctr>,
## #   denom <fctr>, tvhours <int>
```
…
----
## Parsing other formats
* What format is *dep_time* in?


```r
library(nycflights13)
flights
```

```
## # A tibble: 336,776 x 19
##     year month   day dep_time sched_dep_time dep_delay arr_time
##    <int> <int> <int>    <int>          <int>     <dbl>    <int>
##  1  2013     1     1      517            515         2      830
##  2  2013     1     1      533            529         4      850
##  3  2013     1     1      542            540         2      923
##  4  2013     1     1      544            545        -1     1004
##  5  2013     1     1      554            600        -6      812
##  6  2013     1     1      554            558        -4      740
##  7  2013     1     1      555            600        -5      913
##  8  2013     1     1      557            600        -3      709
##  9  2013     1     1      557            600        -3      838
## 10  2013     1     1      558            600        -2      753
## # ... with 336,766 more rows, and 12 more variables: sched_arr_time <int>,
## #   arr_delay <dbl>, carrier <chr>, flight <int>, tailnum <chr>,
## #   origin <chr>, dest <chr>, air_time <dbl>, distance <dbl>, hour <dbl>,
## #   minute <dbl>, time_hour <dttm>
```
…
----
## The way I'd probably do it


```r
flights %>% 
	mutate(dep_time = stringr::str_pad(dep_time, 4, pad = "0")) %>% 
	separate(dep_time, c("dep_hour", "dep_minute"), 2, convert = TRUE)
```

```
## # A tibble: 336,776 x 20
##     year month   day dep_hour dep_minute sched_dep_time dep_delay arr_time
##  * <int> <int> <int>    <int>      <int>          <int>     <dbl>    <int>
##  1  2013     1     1        5         17            515         2      830
##  2  2013     1     1        5         33            529         4      850
##  3  2013     1     1        5         42            540         2      923
##  4  2013     1     1        5         44            545        -1     1004
##  5  2013     1     1        5         54            600        -6      812
##  6  2013     1     1        5         54            558        -4      740
##  7  2013     1     1        5         55            600        -5      913
##  8  2013     1     1        5         57            600        -3      709
##  9  2013     1     1        5         57            600        -3      838
## 10  2013     1     1        5         58            600        -2      753
## # ... with 336,766 more rows, and 12 more variables: sched_arr_time <int>,
## #   arr_delay <dbl>, carrier <chr>, flight <int>, tailnum <chr>,
## #   origin <chr>, dest <chr>, air_time <dbl>, distance <dbl>, hour <dbl>,
## #   minute <dbl>, time_hour <dttm>
```
…
```
## [1] 23
```

----

```r
flights %>% 
	mutate(dep_hour = dep_time %/% 100,
		   dep_min = dep_time %% 100) %>% 
	select(tailnum, dep_time, dep_hour, dep_min)
```

```
## # A tibble: 336,776 x 4
##    tailnum dep_time dep_hour dep_min
##      <chr>    <int>    <dbl>   <dbl>
##  1  N14228      517        5      17
##  2  N24211      533        5      33
##  3  N619AA      542        5      42
##  4  N804JB      544        5      44
##  5  N668DN      554        5      54
##  6  N39463      554        5      54
##  7  N516JB      555        5      55
##  8  N829AS      557        5      57
##  9  N593JB      557        5      57
## 10  N3ALAA      558        5      58
## # ... with 336,766 more rows
```

----
## Creating dates from multiple variables
* Take a minute... How might you think we could create a single date variable?


```r
flights %>% 
	select(year, month, day, hour, minute)
```

```
## # A tibble: 336,776 x 5
##     year month   day  hour minute
##    <int> <int> <int> <dbl>  <dbl>
##  1  2013     1     1     5     15
##  2  2013     1     1     5     29
##  3  2013     1     1     5     40
##  4  2013     1     1     5     45
##  5  2013     1     1     6      0
##  6  2013     1     1     5     58
##  7  2013     1     1     6      0
##  8  2013     1     1     6      0
##  9  2013     1     1     6      0
## 10  2013     1     1     6      0
## # ... with 336,766 more rows
```
----
## Nice *lubridate* functions
* `make_date()` and `make_datetime()` functions that can save us a boatload of time.
* Arguments are: year, month, day, hour, min, sec, and tz. 
* All arguments have defaults, which are: `1970L`, `1L`, `0L`, `0L`, `0`, and `"UTC"`


```r
flights %>% 
	select(year, month, day, hour, minute) %>% 
	mutate(departure = make_datetime(year, month, day, hour, minute))
```

```
## # A tibble: 336,776 x 6
##     year month   day  hour minute           departure
##    <int> <int> <int> <dbl>  <dbl>              <dttm>
##  1  2013     1     1     5     15 2013-01-01 05:15:00
##  2  2013     1     1     5     29 2013-01-01 05:29:00
##  3  2013     1     1     5     40 2013-01-01 05:40:00
##  4  2013     1     1     5     45 2013-01-01 05:45:00
##  5  2013     1     1     6      0 2013-01-01 06:00:00
##  6  2013     1     1     5     58 2013-01-01 05:58:00
##  7  2013     1     1     6      0 2013-01-01 06:00:00
##  8  2013     1     1     6      0 2013-01-01 06:00:00
##  9  2013     1     1     6      0 2013-01-01 06:00:00
## 10  2013     1     1     6      0 2013-01-01 06:00:00
## # ... with 336,766 more rows
```
…
