dplyr (and a bit of checking in)
…
ends_with()

contains()

matches()

num_range()

Project Reads data

reads <- import("./data/Project_Reads_Scores.csv", setclass = "tbl_df")
reads <- clean_names(reads)
reads

## # A tibble: 48 x 25
##                 test_year test_type test_site student_id pre_test_score
##                     <chr>     <chr>     <chr>      <chr>          <int>
##  1 06/01/2016 12:00:00 AM  YEAR END    VIRDEN   Virden 1             43
##  2 06/01/2016 12:00:00 AM  YEAR END    VIRDEN   Virden 2             46
##  3 06/01/2016 12:00:00 AM  YEAR END    VIRDEN   Virden 3             39
##  4 06/01/2016 12:00:00 AM  YEAR END    VIRDEN   Virden 4             35
##  5 06/01/2016 12:00:00 AM  YEAR END    VIRDEN   Virden 5             46
##  6 06/01/2016 12:00:00 AM  YEAR END    VIRDEN   Virden 6             35
##  7 06/01/2016 12:00:00 AM  YEAR END    VIRDEN   Virden 7             40
##  8 06/01/2016 12:00:00 AM  YEAR END    VIRDEN   Virden 8             39
##  9 06/01/2016 12:00:00 AM  YEAR END    VIRDEN   Virden 9             40
## 10 06/01/2016 12:00:00 AM  YEAR END    VIRDEN  Virden 10             45
## # ... with 38 more rows, and 20 more variables: pre_test_percent <chr>,
## #   post_test_score <int>, post_test_percent <chr>,
## #   percentage_change <chr>, unit_1_score <int>, unit_1_percent <chr>,
## #   unit_2_score <int>, unit_2_percent <chr>, unit_3_score <int>,
## #   unit_3_percent <chr>, unit_4_score <int>, unit_4_percent <chr>,
## #   unit_5_6_score <int>, unit_5_6_percent <chr>, unit_7_score <int>,
## #   unit_7_percent <chr>, unit_8_score <int>, unit_8_percent <chr>,
## #   total_score <int>, total_percent_correct <chr>

starts_with

select(reads, starts_with("test"))

## # A tibble: 48 x 3
##                 test_year test_type test_site
##                     <chr>     <chr>     <chr>
##  1 06/01/2016 12:00:00 AM  YEAR END    VIRDEN
##  2 06/01/2016 12:00:00 AM  YEAR END    VIRDEN
##  3 06/01/2016 12:00:00 AM  YEAR END    VIRDEN
##  4 06/01/2016 12:00:00 AM  YEAR END    VIRDEN
##  5 06/01/2016 12:00:00 AM  YEAR END    VIRDEN
##  6 06/01/2016 12:00:00 AM  YEAR END    VIRDEN
##  7 06/01/2016 12:00:00 AM  YEAR END    VIRDEN
##  8 06/01/2016 12:00:00 AM  YEAR END    VIRDEN
##  9 06/01/2016 12:00:00 AM  YEAR END    VIRDEN
## 10 06/01/2016 12:00:00 AM  YEAR END    VIRDEN
## # ... with 38 more rows

ends_with

select(reads, ends_with("score"))

## # A tibble: 48 x 10
##    pre_test_score post_test_score unit_1_score unit_2_score unit_3_score
##             <int>           <int>        <int>        <int>        <int>
##  1             43              92            3            4            6
##  2             46             104            5            5            6
##  3             39              75            4            4            6
##  4             35             115            4            4            6
##  5             46              85            2            5            6
##  6             35              91            5            5            7
##  7             40              96            5            5            6
##  8             39              74            4            5            5
##  9             40              90            6            4            5
## 10             45              86            4            5            5
## # ... with 38 more rows, and 5 more variables: unit_4_score <int>,
## #   unit_5_6_score <int>, unit_7_score <int>, unit_8_score <int>,
## #   total_score <int>

contains

select(reads, contains("test"))

## # A tibble: 48 x 7
##                 test_year test_type test_site pre_test_score
##                     <chr>     <chr>     <chr>          <int>
##  1 06/01/2016 12:00:00 AM  YEAR END    VIRDEN             43
##  2 06/01/2016 12:00:00 AM  YEAR END    VIRDEN             46
##  3 06/01/2016 12:00:00 AM  YEAR END    VIRDEN             39
##  4 06/01/2016 12:00:00 AM  YEAR END    VIRDEN             35
##  5 06/01/2016 12:00:00 AM  YEAR END    VIRDEN             46
##  6 06/01/2016 12:00:00 AM  YEAR END    VIRDEN             35
##  7 06/01/2016 12:00:00 AM  YEAR END    VIRDEN             40
##  8 06/01/2016 12:00:00 AM  YEAR END    VIRDEN             39
##  9 06/01/2016 12:00:00 AM  YEAR END    VIRDEN             40
## 10 06/01/2016 12:00:00 AM  YEAR END    VIRDEN             45
## # ... with 38 more rows, and 3 more variables: pre_test_percent <chr>,
## #   post_test_score <int>, post_test_percent <chr>

matches

Matches a regular expression (here, contains a digit))

select(reads, matches("\\d"))

## # A tibble: 48 x 14
##    unit_1_score unit_1_percent unit_2_score unit_2_percent unit_3_score
##           <int>          <chr>        <int>          <chr>        <int>
##  1            3            12%            4            16%            6
##  2            5            20%            5            20%            6
##  3            4            16%            4            16%            6
##  4            4            16%            4            16%            6
##  5            2             8%            5            20%            6
##  6            5            20%            5            20%            7
##  7            5            20%            5            20%            6
##  8            4            16%            5            20%            5
##  9            6            24%            4            16%            5
## 10            4            16%            5            20%            5
## # ... with 38 more rows, and 9 more variables: unit_3_percent <chr>,
## #   unit_4_score <int>, unit_4_percent <chr>, unit_5_6_score <int>,
## #   unit_5_6_percent <chr>, unit_7_score <int>, unit_7_percent <chr>,
## #   unit_8_score <int>, unit_8_percent <chr>

num_range

Only works if the number is at the end of the column. So, first drop “_score”
from each of the score columns, then select units 2-4 and 7.

names(reads)[grep("score", names(reads))] <- gsub("_score", "", 
    names(reads)[grep("score", names(reads))])

select(reads, num_range("unit_", c(2:4, 7)))

## # A tibble: 48 x 4
##    unit_2 unit_3 unit_4 unit_7
##     <int>  <int>  <int>  <int>
##  1      4      6      8     22
##  2      5      6      8     20
##  3      4      6      9     19
##  4      4      6     10     18
##  5      5      6      7     19
##  6      5      7      7     23
##  7      5      6      7     21
##  8      5      5      8     16
##  9      4      5      8     18
## 10      5      5      7     21
## # ... with 38 more rows

Last thing on select

You can mix types and helper funs. You can also use select to rearrange your columns.

select(reads, student_id, 1, starts_with("total"))

## # A tibble: 48 x 4
##    student_id              test_year total total_percent_correct
##         <chr>                  <chr> <int>                 <chr>
##  1   Virden 1 06/01/2016 12:00:00 AM   207                   41%
##  2   Virden 2 06/01/2016 12:00:00 AM   224                   45%
##  3   Virden 3 06/01/2016 12:00:00 AM   193                   39%
##  4   Virden 4 06/01/2016 12:00:00 AM   223                   45%
##  5   Virden 5 06/01/2016 12:00:00 AM   198                   40%
##  6   Virden 6 06/01/2016 12:00:00 AM   210                   42%
##  7   Virden 7 06/01/2016 12:00:00 AM   211                   42%
##  8   Virden 8 06/01/2016 12:00:00 AM   180                   36%
##  9   Virden 9 06/01/2016 12:00:00 AM   206                   41%
## 10  Virden 10 06/01/2016 12:00:00 AM   206                   41%
## # ... with 38 more rows
…
##   mean_winning_pct sd_winning_pct
## 1        0.4811027     0.06864337

group_by

Conduct an operation by each level of a grouping factor

Compute average wins for each team

teams %>% 
    group_by(name) %>% 
    summarize(av_wins = mean(w, na.rm = TRUE))

## # A tibble: 139 x 2
##                     name  av_wins
##                    <chr>    <dbl>
##  1 Altoona Mountain City  6.00000
##  2        Anaheim Angels 83.00000
##  3  Arizona Diamondbacks 79.10526
##  4        Atlanta Braves 81.84314
##  5    Baltimore Canaries 26.00000
##  6   Baltimore Marylands  0.00000
##  7 Baltimore Monumentals 58.00000
##  8     Baltimore Orioles 76.87952
##  9   Baltimore Terrapins 65.50000
## 10      Boston Americans 75.42857
## # ... with 129 more rows
…
Use  group_by in conjunction with summary to

compute the average and standard deviation of winning percentage for each team.

Order by highest winning percentage

teams %>% 
  mutate(w_pct = w / (w + l)) %>% 
  group_by(name) %>% 
  summarize(n = n(),
            mean_winning_pct = mean(w_pct, na.rm = TRUE),
            sd_winning_pct = sd(w_pct, na.rm = TRUE)) %>% 
  arrange(desc(mean_winning_pct))

## # A tibble: 139 x 4
##                        name     n mean_winning_pct sd_winning_pct
##                       <chr> <int>            <dbl>          <dbl>
##  1     Boston Red Stockings     5        0.7733718     0.09110570
##  2   Cincinnati Outlaw Reds     1        0.6571429             NA
##  3              Boston Reds     3        0.6163020     0.07903104
##  4         Providence Grays     8        0.6092069     0.08552465
##  5  Chicago White Stockings    17        0.6090423     0.11726548
##  6 Cincinnati Red Stockings     8        0.5888868     0.06395065
##  7          Boston Red Caps     7        0.5790099     0.09764495
##  8         New York Yankees   104        0.5760731     0.06993827
##  9  Brooklyn Ward's Wonders     1        0.5757576             NA
## 10      Philadelphia Whites     3        0.5744543     0.09339407
## # ... with 129 more rows
…
