Multi-model inference
…
---
# Pop Quiz
What would the fitted values (predictions from the model for our observed 
cases) be for this model be?

--

```r
benchmarks %>%
  mutate(m0_fitted = fitted(m0))
```

```
## # A tibble: 174 x 8
##       sid sped     ethnicity  frl     ell     rdg_fall rdg_spr m0_fitted
##     <dbl> <chr>    <chr>      <chr>   <chr>      <dbl>   <dbl>     <dbl>
##  1 409687 Non-Sped Hispanic   FRL     Active       181     194  198.4828
##  2 409847 Sped     Black      FRL     Non-ELL      166     159  198.4828
##  3 491527 Sped     White      FRL     Non-ELL      216     198  198.4828
##  4 500147 Non-Sped Native Am. FRL     Non-ELL      203     204  198.4828
##  5 501027 Non-Sped Hispanic   FRL     Active       198     173  198.4828
##  6 501147 Non-Sped Hispanic   FRL     Active       188     173  198.4828
##  7 501217 Non-Sped Hispanic   FRL     Monitor      202     200  198.4828
##  8 501787 Non-Sped White      Non-FRL Active       182     206  198.4828
##  9 502417 Non-Sped Black      Non-FRL Non-ELL      194     191  198.4828
## 10 503127 Non-Sped Hispanic   FRL     Active       170     185  198.4828
## # ... with 164 more rows
```
…
