…
```r
library(tidyverse)
d <- read_csv("http://www.dandersondata.com/post/data/synthetic_data2.csv") %>% 
  janitor::clean_names() %>% 
  select(sid, grade, sld, ld33)
d
```

```r
## # A tibble: 11,298 x 4
##         sid grade   sld ld33  
##       <int> <int> <int> <chr> 
##  1 12931993     6     0 Never 
##  2  5757142     6     0 Never 
##  3  7720394     6     0 Never 
##  4  7035071     6     0 Never 
##  5  7782160     6     0 Never 
##  6  8306796     6     0 Never 
##  7  8213712     6     1 Always
##  8  3808246     6     0 Never 
##  9  2539721     6     0 Never 
## 10  6730043     6     0 Never 
## # ... with 11,288 more rows
```
…
Now we're getting close, but the actual format `ggforce` needs the data in is a
bit more complex. Luckily, the package provides a helper function. We just need
to tell it, basically, which columns we want along the x-axis.


```r
library(ggforce)
pd <- pd %>% 
  gather_set_data(1:3)

pd
```

```r
## # A tibble: 21 x 8
## # Groups:   Grade 6, Grade 7, Grade 8 [7]
##    `Grade 6` `Grade 7` `Grade 8`     n Pattern            id x      y     
##    <chr>     <chr>     <chr>     <int> <chr>           <int> <chr>  <chr> 
##  1 Non-SLD   Non-SLD   SLD          16 Non-SLD/Non-SL…     1 Grade… Non-S…
##  2 Non-SLD   SLD       Non-SLD       1 Non-SLD/SLD/No…     2 Grade… Non-S…
##  3 Non-SLD   SLD       SLD          19 Non-SLD/SLD/SLD     3 Grade… Non-S…
##  4 SLD       Non-SLD   Non-SLD      17 SLD/Non-SLD/No…     4 Grade… SLD   
##  5 SLD       Non-SLD   SLD           1 SLD/Non-SLD/SLD     5 Grade… SLD   
##  6 SLD       SLD       Non-SLD      20 SLD/SLD/Non-SLD     6 Grade… SLD   
##  7 SLD       SLD       SLD         217 SLD/SLD/SLD         7 Grade… SLD   
##  8 Non-SLD   Non-SLD   SLD          16 Non-SLD/Non-SL…     1 Grade… Non-S…
##  9 Non-SLD   SLD       Non-SLD       1 Non-SLD/SLD/No…     2 Grade… SLD   
## 10 Non-SLD   SLD       SLD          19 Non-SLD/SLD/SLD     3 Grade… SLD   
## # ... with 11 more rows
```
…
