…
Now, we can import all of these datasets back into R with the `sundry::read_files` function.


```r
d <- read_files()
d
```

```r
## # A tibble: 150 x 5
##    file   Sepal.Length Sepal.Width Petal.Length Petal.Width
##    <chr>         <dbl>       <dbl>        <dbl>       <dbl>
##  1 setosa         5.10        3.50           NA          NA
##  2 setosa         4.90        3.00           NA          NA
##  3 setosa         4.70        3.20           NA          NA
##  4 setosa         4.60        3.10           NA          NA
##  5 setosa         5.00        3.60           NA          NA
##  6 setosa         5.40        3.90           NA          NA
##  7 setosa         4.60        3.40           NA          NA
##  8 setosa         5.00        3.40           NA          NA
##  9 setosa         4.40        2.90           NA          NA
## 10 setosa         4.90        3.10           NA          NA
## # ... with 140 more rows
```
…
The function also works well with `dplyr::group_by`


```r
storms %>% 
  group_by(year) %>% 
  descrips(wind, pressure)
```

```r
## # A tibble: 82 x 7
##     year variable     n   min    max   mean    sd
##    <dbl> <chr>    <dbl> <dbl>  <dbl>  <dbl> <dbl>
##  1  1975 pressure  86.0 963   1014    995   15.2 
##  2  1975 wind      86.0  20.0  100     50.9 23.6 
##  3  1976 pressure  52.0 957   1012    989   15.3 
##  4  1976 wind      52.0  20.0  105     59.9 24.8 
##  5  1977 pressure  53.0 926   1015    995   20.4 
##  6  1977 wind      53.0  20.0  150     54.0 29.6 
##  7  1978 pressure  54.0 980   1012   1006    6.64
##  8  1978 wind      54.0  20.0   80.0   40.5 13.9 
##  9  1979 pressure 301   924   1014    995   19.9 
## 10  1979 wind     301    15.0  150     48.7 30.3 
## # ... with 72 more rows
```

And finally, if you want different functions, you can supply them via the optional `.funs` argument. Below, we'll calculate the 25th, 50th, and 75th percentiles instead.


```r
storms %>% 
  group_by(year) %>% 
  descrips(wind, pressure,
           .funs = funs(qtile25 = quantile(., 0.25),
                        median, 
                        qtile75 = quantile(., 0.75)))
```

```r
## # A tibble: 82 x 5
##     year variable qtile25 median qtile75
##    <dbl> <chr>      <dbl>  <dbl>   <dbl>
##  1  1975 pressure   984    997    1011  
##  2  1975 wind        25.0   52.5    65.0
##  3  1976 pressure   978    992    1000  
##  4  1976 wind        38.8   60.0    80.0
##  5  1977 pressure   994   1001    1010  
##  6  1977 wind        30.0   45.0    70.0
##  7  1978 pressure  1006   1007    1009  
##  8  1978 wind        30.0   40.0    45.0
##  9  1979 pressure   988   1002    1008  
## 10  1979 wind        25.0   35.0    65.0
## # ... with 72 more rows
```
…
```r
d <- rio::import("http://www.oregon.gov/ode/educator-resources/assessment/TestResults2017/pagr_schools_ela_tot_ecd_ext_gnd_lep_1617.xlsx",
            setclass = "tbl_df",
            na = c("--", "*")) %>% 
  janitor::clean_names()

d %>% 
  select(district_id, number_level_4:percent_level_1)
```

```r
## # A tibble: 23,760 x 9
##    district_id number_level_4 percent_level_4 number_level_3
##          <dbl> <chr>          <chr>           <chr>         
##  1        2063 <NA>           <NA>            <NA>          
##  2        2063 <NA>           <NA>            <NA>          
##  3        2063 <NA>           <NA>            <NA>          
##  4        2063 <NA>           <NA>            <NA>          
##  5        2063 <NA>           <NA>            <NA>          
##  6        2063 <NA>           <NA>            <NA>          
##  7        2063 <NA>           <NA>            <NA>          
##  8        2063 <NA>           <NA>            <NA>          
##  9        2063 <NA>           <NA>            <NA>          
## 10        2063 <NA>           <NA>            <NA>          
## # ... with 23,750 more rows, and 5 more variables: percent_level_3 <chr>,
## #   number_level_2 <chr>, percent_level_2 <chr>, number_level_1 <chr>,
## #   percent_level_1 <chr>
```

Note that there are many more columns here, but I'm only showing the ones that I'm interested in. I want to remove and rows that are missing across these variables, which I can do with `sundry::rm_empty_rows`.


```r
d %>% 
  rm_empty_rows(number_level_4:percent_level_1) %>% 
  select(district_id, number_level_4:percent_level_1) 
```

```r
## # A tibble: 15,081 x 9
##    district_id number_level_4 percent_level_4    number_level_3
##          <dbl> <chr>          <chr>              <chr>         
##  1        2113 5              45.5               5             
##  2        2113 5              29.4               8             
##  3        2113 2              20                 5             
##  4        2113 5              33.299999999999997 7             
##  5        2113 2              20                 5             
##  6        2113 0              0                  6             
##  7        2113 7              53.8               5             
##  8        2113 5              41.7               4             
##  9        2113 5              41.7               6             
## 10        2113 -              -                  -             
## # ... with 15,071 more rows, and 5 more variables: percent_level_3 <chr>,
## #   number_level_2 <chr>, percent_level_2 <chr>, number_level_1 <chr>,
## #   percent_level_1 <chr>
```
…
So in this case, the minimum wind speed is 10, and the maximum is 160. The first 9 rows all match the minimum wind speed, while the 10th and 11th rows match the max. You can quickly identify which function the row was selected on by the *fun* column that is added to the data frame. Again, this function works well with `dplyr::group_by`, and should work with any function.


```r
storms %>%
  group_by(year) %>% 
  filter_by_funs(wind, funs(min, max)) %>% 
  select(fun, name, year, wind) %>% 
  arrange(year)
```

```r
## # A tibble: 387 x 4
## # Groups:   year [41]
##    fun   name      year  wind
##    <chr> <chr>    <dbl> <int>
##  1 min   Caroline  1975    20
##  2 min   Caroline  1975    20
##  3 max   Caroline  1975   100
##  4 max   Caroline  1975   100
##  5 min   Gloria    1976    20
##  6 min   Gloria    1976    20
##  7 max   Belle     1976   105
##  8 max   Belle     1976   105
##  9 min   Anita     1977    20
## 10 min   Clara     1977    20
## # ... with 377 more rows
```
…
