MR w/two continuous IVs
…
# load the data
d <- import(here("data", "elemapi.sav"),
            setclass = "tbl_df")
```

---

```r
d
```

```
## # A tibble: 400 x 21
##     snum  dnum api00 api99 growth meals   ell yr_rnd mobility acs_k3
##    <dbl> <dbl> <dbl> <dbl>  <dbl> <dbl> <dbl>  <dbl>    <dbl>  <dbl>
##  1   906    41   693   600     93    67     9      0       11     16
##  2   889    41   570   501     69    92    21      0       33     15
##  3   887    41   546   472     74    97    29      0       36     17
##  4   876    41   571   487     84    90    27      0       27     20
##  5   888    41   478   425     53    89    30      0       44     18
##  6  4284    98   858   844     14    NA     3      0       10     20
##  7  4271    98   918   864     54    NA     2      0       16     19
##  8  2910   108   831   791     40    NA     3      0       44     20
##  9  2899   108   860   838     22    NA     6      0       10     20
## 10  2887   108   737   703     34    29    15      0       17     21
## # ... with 390 more rows, and 11 more variables: acs_46 <dbl>,
## #   not_hsg <dbl>, hsg <dbl>, some_col <dbl>, col_grad <dbl>,
## #   grad_sch <dbl>, avg_ed <dbl>, full <dbl>, emer <dbl>, enroll <dbl>,
## #   mealcat <dbl>
```
…
