Looking into #KeepFamiliesTogether - Data Science in Education
…
sep <- search_tweets("#KeepFamilesTogether", n = 18000, include_rts = FALSE)

I’ve since saved this file, which you can access here. You’ll want to download it and then read it in using code similar to the below.

sep <- readRDS("keepfamiliestogether_2018-06-19.rds") %>% 
  as_tibble()

The data has a lot of columns, but the primary ones we’ll be interested in are the screen_name, text, and hashtags.

sep <- sep %>% 
  select(screen_name, text, hashtags)
sep  

## # A tibble: 14,913 x 3
##    screen_name     text                                           hashtags
##  * <chr>           <chr>                                          <list>  
##  1 annwallack      Maybe we need some PTA moms at the border who… <chr [1…
##  2 annwallack      Similar to the hasty “Muslim ban” this separa… <chr [1…
##  3 Kristin75092375 Dear #Feckless , you may be Pres, but every N… <chr [3…
##  4 qantasbird      @YAppelbaum @juliaioffe @mckaycoppins Nope, h… <chr [2…
##  5 qantasbird      "@copperbird7 Ah, but his \"orders\". #KeepFa… <chr [1…
##  6 qantasbird      @seungminkim @realDonaldTrump #KeepFamilesTog… <chr [1…
##  7 qantasbird      @RepSwalwell Thank you. Keep fighting the goo… <chr [2…
##  8 qantasbird      @parscale @TGowdySC @realDonaldTrump #KeepFam… <chr [1…
##  9 qantasbird      "@westratenick Tom is just \"following orders… <chr [1…
## 10 snugharborlabs  @AceHardware - Your ads on Fox News tells the… <chr [1…
## # ... with 14,903 more rows

Evaluating Word Frequencies

The first thing we wanted to do is just look at the frequency of words. We did this using functions from {tidytext}. In the below, we’ll look at the most common individual words that were used in these ~15K tweets that included #KeepFamiliesTogether. We do this by using the unnest_tokens function, creating a new column called word, and feeding it the text column. This will split the sentences in the text column into individual words in a tidytext format, where each row represents a word.

words <- sep %>% 
  unnest_tokens(word, text)

words

## # A tibble: 343,568 x 3
##    screen_name hashtags  word  
##    <chr>       <list>    <chr> 
##  1 annwallack  <chr [1]> maybe 
##  2 annwallack  <chr [1]> we    
##  3 annwallack  <chr [1]> need  
##  4 annwallack  <chr [1]> some  
##  5 annwallack  <chr [1]> pta   
##  6 annwallack  <chr [1]> moms  
##  7 annwallack  <chr [1]> at    
##  8 annwallack  <chr [1]> the   
##  9 annwallack  <chr [1]> border
## 10 annwallack  <chr [1]> who   
## # ... with 343,558 more rows

Next, we need to remove common words, like “a”, “we”, “of”, etc. There are lots of ways to do this but the {tidytext} package provides a simple dictionary of common words, stored in the stop_words data frame. We can just do an anti_join with our twitter data frame and this one to remove these words from our tweets.

words <- words %>% 
  anti_join(stop_words)

## Joining, by = "word"

words

## # A tibble: 177,699 x 3
##    screen_name hashtags  word     
##    <chr>       <list>    <chr>    
##  1 annwallack  <chr [1]> pta      
##  2 annwallack  <chr [1]> moms     
##  3 annwallack  <chr [1]> border   
##  4 annwallack  <chr [1]> pin      
##  5 annwallack  <chr [1]> notes    
##  6 annwallack  <chr [1]> children 
##  7 annwallack  <chr [1]> parents  
##  8 annwallack  <chr [1]> names    
##  9 annwallack  <chr [1]> emergency
## 10 annwallack  <chr [1]> contact  
## # ... with 177,689 more rows

Notice the message says that it’s joining by “word”, which is a common variable in each each data frame.

Now, we just count the words.

counts <- words %>% 
  count(word, sort = TRUE)

counts

## # A tibble: 27,733 x 2
##    word                    n
##    <chr>               <int>
##  1 keepfamilestogether 15287
##  2 https                6991
##  3 t.co                 6991
##  4 children             2953
##  5 trump                1598
##  6 families             1434
##  7 parents              1243
##  8 realdonaldtrump      1153
##  9 kids                 1133
## 10 border               1126
## # ... with 27,723 more rows

But notice we have a few things to clean up here still. We want to remove things like “https” from our counts. We also will remove “keepfamilestogether” because that should be in every tweet (and apparently, by the n, multiple times in some tweets). This is the approach we took.

counts <- words %>% 
  filter(word != "keepfamilestogether" &
         word != "https" &
         word != "t.co") %>% 
  count(word, sort = TRUE)

counts

## # A tibble: 27,730 x 2
##    word                n
##    <chr>           <int>
##  1 children         2953
##  2 trump            1598
##  3 families         1434
##  4 parents          1243
##  5 realdonaldtrump  1153
##  6 kids             1133
##  7 border           1126
##  8 amp              1108
##  9 people            966
## 10 stop              785
## # ... with 27,720 more rows
…
Maybe my favorite one here is the fourth from the top, which is just some digits. If you search twitter for those digits, you may find some tweets like these

The digits are a phone number to congress.

But there are some other interesting things in this display. We see an excerpt from the poem from the statue of liberty (“huddled masses yearning”) and plenty of other phrases indicating outrage and disapproval, with “human rights” being prominent, and other phrases in line with “stop separating families” (which appears near the middle).

But the evil side is again clearly represented here, perhaps moreso than in the bigrams. Right below a trigram made up of the hashtag repeated three times, we see essentially the opposite, with “fakeoutrage fakeoutrage fakeoutrage”, followed by “news fake news” and the similar “fake news fake”. Near the bottom we also see “buildthatwall amp deporthemall”.

Hashtags

Finally, we wanted to look into hashtags that coincided with #KeepFamiliesTogether. First, lets look at the structure of the tweets data frame a little more.

sep

## # A tibble: 14,913 x 3
##    screen_name     text                                           hashtags
##  * <chr>           <chr>                                          <list>  
##  1 annwallack      Maybe we need some PTA moms at the border who… <chr [1…
##  2 annwallack      Similar to the hasty “Muslim ban” this separa… <chr [1…
##  3 Kristin75092375 Dear #Feckless , you may be Pres, but every N… <chr [3…
##  4 qantasbird      @YAppelbaum @juliaioffe @mckaycoppins Nope, h… <chr [2…
##  5 qantasbird      "@copperbird7 Ah, but his \"orders\". #KeepFa… <chr [1…
##  6 qantasbird      @seungminkim @realDonaldTrump #KeepFamilesTog… <chr [1…
##  7 qantasbird      @RepSwalwell Thank you. Keep fighting the goo… <chr [2…
##  8 qantasbird      @parscale @TGowdySC @realDonaldTrump #KeepFam… <chr [1…
##  9 qantasbird      "@westratenick Tom is just \"following orders… <chr [1…
## 10 snugharborlabs  @AceHardware - Your ads on Fox News tells the… <chr [1…
## # ... with 14,903 more rows

Notice that the hashtags column is a list. Because it’s a list in a data frame, we would call it a list column. We can transform this list into a standard vector by using tidyr::unnest(), which should not be confused with tidytext::unnest_tokens. The former is just removing the list-column structure, essentially expanding the number of rows of the data frame, while the latter is doing a bunch of other operations to extract just the elements you want (words or ngrams). Let’s drop the actual text of the tweets and unnest the hashtags.

hashtags <- sep %>% 
  select(-text) %>% 
  unnest()

hashtags

## # A tibble: 30,292 x 2
##    screen_name     hashtags               
##    <chr>           <chr>                  
##  1 annwallack      KeepFamilesTogether    
##  2 annwallack      KeepFamilesTogether    
##  3 Kristin75092375 Feckless               
##  4 Kristin75092375 loser                  
##  5 Kristin75092375 KeepFamilesTogether    
##  6 qantasbird      KeepFamilesTogether    
##  7 qantasbird      KeepFamiliesTogetherAct
##  8 qantasbird      KeepFamilesTogether    
##  9 qantasbird      KeepFamilesTogether    
## 10 qantasbird      KeepFamilesTogether    
## # ... with 30,282 more rows
…
