…
---
## A few more examples (follow along)
* Load the *votes.repub.csv* dataset.


```r
votes <- import("../../data/votes.repub.csv", setclass = "tbl_df")
votes
```

```
## # A tibble: 50 x 32
##             V1 X1856 X1860 X1864 X1868 X1872 X1876 X1880 X1884 X1888 X1892
##          <chr> <dbl> <dbl> <dbl> <dbl> <dbl> <dbl> <dbl> <dbl> <dbl> <dbl>
##  1     Alabama    NA    NA    NA 51.44 53.19 40.02 36.98 38.44 32.28  3.95
##  2      Alaska    NA    NA    NA    NA    NA    NA    NA    NA    NA    NA
##  3     Arizona    NA    NA    NA    NA    NA    NA    NA    NA    NA    NA
##  4    Arkansas    NA    NA    NA 53.73 52.17 39.88 39.55 40.50 38.07 32.01
##  5  California 18.77 32.96 58.63 50.24 56.38 50.88 48.92 52.08 49.95 43.76
##  6    Colorado    NA    NA    NA    NA    NA    NA 51.28 54.39 55.31 41.13
##  7 Connecticut 53.18 53.86 51.38 51.54 52.25 48.34 50.52 48.01 48.44 46.80
##  8    Delaware  2.11 23.71 48.20 40.98 50.99 44.55 47.86 42.75 43.55 48.55
##  9     Florida    NA    NA    NA    NA 53.52 50.99 45.83 46.82 39.94    NA
## 10     Georgia    NA    NA    NA 35.72 43.77 27.94 34.33 33.84 28.33 21.80
## # ... with 40 more rows, and 21 more variables: X1896 <dbl>, X1900 <dbl>,
## #   X1904 <dbl>, X1908 <dbl>, X1912 <dbl>, X1916 <dbl>, X1920 <dbl>,
## #   X1924 <dbl>, X1928 <dbl>, X1932 <dbl>, X1936 <dbl>, X1940 <dbl>,
## #   X1944 <dbl>, X1948 <dbl>, X1952 <dbl>, X1956 <dbl>, X1960 <dbl>,
## #   X1964 <dbl>, X1968 <dbl>, X1972 <dbl>, X1976 <dbl>
```
…
```r
names(votes)[1] <- "state"
```

----
## Step 2: `gather()`


```r
votes %>% 
    gather(year, approval_rating, -1)
```

```
## # A tibble: 1,550 x 3
##          state  year approval_rating
##          <chr> <chr>           <dbl>
##  1     Alabama X1856              NA
##  2      Alaska X1856              NA
##  3     Arizona X1856              NA
##  4    Arkansas X1856              NA
##  5  California X1856           18.77
##  6    Colorado X1856              NA
##  7 Connecticut X1856           53.18
##  8    Delaware X1856            2.11
##  9     Florida X1856              NA
## 10     Georgia X1856              NA
## # ... with 1,540 more rows
```

----
## Clean up some


```r
votes_tidy <- votes %>% 
    gather(year, approval_rating, -1) %>% 
    mutate(year = parse_number(year))
votes_tidy
```

```
## # A tibble: 1,550 x 3
##          state  year approval_rating
##          <chr> <dbl>           <dbl>
##  1     Alabama  1856              NA
##  2      Alaska  1856              NA
##  3     Arizona  1856              NA
##  4    Arkansas  1856              NA
##  5  California  1856           18.77
##  6    Colorado  1856              NA
##  7 Connecticut  1856           53.18
##  8    Delaware  1856            2.11
##  9     Florida  1856              NA
## 10     Georgia  1856              NA
## # ... with 1,540 more rows
```
…
----
## More complex
* Load the affairs data
* Discuss with a partner/your table
    + What are the variables?
    + What needs to happen to make it tidy?


```r
affairs <- import("../../data/affairs.csv", setclass = "tbl_df")
affairs
```

```
## # A tibble: 601 x 19
##       V1 naffairs  kids vryunhap unhap avgmarr hapavg vryhap antirel
##    <chr>    <int> <int>    <int> <int>   <int>  <int>  <int>   <int>
##  1     1        0     0        0     0       0      1      0       0
##  2     2        0     0        0     0       0      1      0       0
##  3     3        3     0        0     0       0      1      0       0
##  4     4        0     1        0     0       0      1      0       1
##  5     5        3     1        0     0       0      0      1       0
##  6     6        0     1        0     0       0      0      1       0
##  7     7        0     0        0     0       1      0      0       0
##  8     8        0     0        0     0       0      0      1       0
##  9     9        7     1        0     1       0      0      0       0
## 10    10        0     0        0     0       1      0      0       0
## # ... with 591 more rows, and 10 more variables: notrel <int>,
## #   slghtrel <int>, smerel <int>, vryrel <int>, yrsmarr1 <int>,
## #   yrsmarr2 <int>, yrsmarr3 <int>, yrsmarr4 <int>, yrsmarr5 <int>,
## #   yrsmarr6 <int>
```
…
----
## Lots of ways to do this
* One way: `rename`, `gather`, `separate`, `filter`, `spread`
For renaming I'm using base again and you can probably see more clearly why I  prefer it

```r
names(affairs)[1] <- "id"
names(affairs)[4:8] <- paste0("marhap_", names(affairs)[4:8])
names(affairs)[9:13] <- paste0("rel_", names(affairs)[9:13])
names(affairs)[14:19] <- paste0("yrs_", names(affairs)[14:19])
affairs
```

```
## # A tibble: 601 x 19
##       id naffairs  kids marhap_vryunhap marhap_unhap marhap_avgmarr
##    <chr>    <int> <int>           <int>        <int>          <int>
##  1     1        0     0               0            0              0
##  2     2        0     0               0            0              0
##  3     3        3     0               0            0              0
##  4     4        0     1               0            0              0
##  5     5        3     1               0            0              0
##  6     6        0     1               0            0              0
##  7     7        0     0               0            0              1
##  8     8        0     0               0            0              0
##  9     9        7     1               0            1              0
## 10    10        0     0               0            0              1
## # ... with 591 more rows, and 13 more variables: marhap_hapavg <int>,
## #   marhap_vryhap <int>, rel_antirel <int>, rel_notrel <int>,
## #   rel_slghtrel <int>, rel_smerel <int>, rel_vryrel <int>,
## #   yrs_yrsmarr1 <int>, yrs_yrsmarr2 <int>, yrs_yrsmarr3 <int>,
## #   yrs_yrsmarr4 <int>, yrs_yrsmarr5 <int>, yrs_yrsmarr6 <int>
```

----
## `gather`


```r
affairs %>% 
  gather(var, val, -id, -naffairs, -kids)
```

```
## # A tibble: 9,616 x 5
##       id naffairs  kids             var   val
##    <chr>    <int> <int>           <chr> <int>
##  1     1        0     0 marhap_vryunhap     0
##  2     2        0     0 marhap_vryunhap     0
##  3     3        3     0 marhap_vryunhap     0
##  4     4        0     1 marhap_vryunhap     0
##  5     5        3     1 marhap_vryunhap     0
##  6     6        0     1 marhap_vryunhap     0
##  7     7        0     0 marhap_vryunhap     0
##  8     8        0     0 marhap_vryunhap     0
##  9     9        7     1 marhap_vryunhap     0
## 10    10        0     0 marhap_vryunhap     0
## # ... with 9,606 more rows
```

----
## `separate`


```r
affairs %>% 
  gather(var, val, -id, -naffairs, -kids) %>% 
  separate(var, c("var", "char_val"))
```

```
## # A tibble: 9,616 x 6
##       id naffairs  kids    var char_val   val
##  * <chr>    <int> <int>  <chr>    <chr> <int>
##  1     1        0     0 marhap vryunhap     0
##  2     2        0     0 marhap vryunhap     0
##  3     3        3     0 marhap vryunhap     0
##  4     4        0     1 marhap vryunhap     0
##  5     5        3     1 marhap vryunhap     0
##  6     6        0     1 marhap vryunhap     0
##  7     7        0     0 marhap vryunhap     0
##  8     8        0     0 marhap vryunhap     0
##  9     9        7     1 marhap vryunhap     0
## 10    10        0     0 marhap vryunhap     0
## # ... with 9,606 more rows
```

----
## Filter


```r
affairs %>% 
  gather(var, val, -id, -naffairs, -kids) %>% 
  separate(var, c("var", "char_val")) %>%
  filter(val == 1)
```

```
## # A tibble: 1,803 x 6
##       id naffairs  kids    var char_val   val
##    <chr>    <int> <int>  <chr>    <chr> <int>
##  1    49       12     1 marhap vryunhap     1
##  2    64        0     1 marhap vryunhap     1
##  3    82        0     1 marhap vryunhap     1
##  4   138        0     1 marhap vryunhap     1
##  5   150       12     1 marhap vryunhap     1
##  6   206        7     1 marhap vryunhap     1
##  7   215        0     1 marhap vryunhap     1
##  8   275        3     1 marhap vryunhap     1
##  9   358        0     1 marhap vryunhap     1
## 10   371        0     1 marhap vryunhap     1
## # ... with 1,793 more rows
```
----
## Drop val and `spread`


```r
affairs %>% 
  gather(var, val, -id, -naffairs, -kids) %>% 
  separate(var, c("var", "char_val")) %>%
  filter(val == 1) %>%  
  select(-val) %>% 
  spread(var, char_val)
```

```
## # A tibble: 601 x 6
##       id naffairs  kids  marhap      rel      yrs
##  * <chr>    <int> <int>   <chr>    <chr>    <chr>
##  1     1        0     0  hapavg slghtrel yrsmarr5
##  2    10        0     0 avgmarr   notrel yrsmarr1
##  3   100        0     1  hapavg   smerel yrsmarr5
##  4   101        0     1  vryhap slghtrel yrsmarr6
##  5   102        0     0  vryhap   vryrel yrsmarr2
##  6   103        0     0  hapavg   notrel yrsmarr2
##  7   104        7     1  hapavg   notrel yrsmarr4
##  8   105        7     1  hapavg   notrel yrsmarr6
##  9   106        0     0  vryhap slghtrel yrsmarr3
## 10   107        0     1  vryhap   vryrel yrsmarr5
## # ... with 591 more rows
```
…
```r
affairs_tidy <- affairs %>% 
  gather(var, val, -id, -naffairs, -kids) %>% 
  separate(var, c("var", "char_val")) %>%
  filter(val == 1) %>%  
  select(-val) %>% 
  spread(var, char_val) %>% 
  mutate(yrs = parse_number(yrs))

affairs_tidy
```

```
## # A tibble: 601 x 6
##       id naffairs  kids  marhap      rel   yrs
##    <chr>    <int> <int>   <chr>    <chr> <dbl>
##  1     1        0     0  hapavg slghtrel     5
##  2    10        0     0 avgmarr   notrel     1
##  3   100        0     1  hapavg   smerel     5
##  4   101        0     1  vryhap slghtrel     6
##  5   102        0     0  vryhap   vryrel     2
##  6   103        0     0  hapavg   notrel     2
##  7   104        7     1  hapavg   notrel     4
##  8   105        7     1  hapavg   notrel     6
##  9   106        0     0  vryhap slghtrel     3
## 10   107        0     1  vryhap   vryrel     5
## # ... with 591 more rows
```
…
----
## Challenge: Creating dummies
Try turning religion back to a dummy variable, like below

* Hint 1: You'll have to create a new variable.
* Hint 2: Think about additional arguments you could pass to the functions you're using. Look at the documentation.


```
## # A tibble: 601 x 10
##       id naffairs  kids  marhap   yrs antirel notrel slghtrel smerel
##  * <chr>    <int> <int>   <chr> <dbl>   <dbl>  <dbl>    <dbl>  <dbl>
##  1     1        0     0  hapavg     5       0      0        1      0
##  2    10        0     0 avgmarr     1       0      1        0      0
##  3   100        0     1  hapavg     5       0      0        0      1
##  4   101        0     1  vryhap     6       0      0        1      0
##  5   102        0     0  vryhap     2       0      0        0      0
##  6   103        0     0  hapavg     2       0      1        0      0
##  7   104        7     1  hapavg     4       0      1        0      0
##  8   105        7     1  hapavg     6       0      1        0      0
##  9   106        0     0  vryhap     3       0      0        1      0
## 10   107        0     1  vryhap     5       0      0        0      0
## # ... with 591 more rows, and 1 more variables: vryrel <dbl>
```


----

```r
affairs_tidy %>% 
    mutate(const = 1) %>% 
    spread(rel, const, fill = 0) 
```

```
## # A tibble: 601 x 10
##       id naffairs  kids  marhap   yrs antirel notrel slghtrel smerel
##  * <chr>    <int> <int>   <chr> <dbl>   <dbl>  <dbl>    <dbl>  <dbl>
##  1     1        0     0  hapavg     5       0      0        1      0
##  2    10        0     0 avgmarr     1       0      1        0      0
##  3   100        0     1  hapavg     5       0      0        0      1
##  4   101        0     1  vryhap     6       0      0        1      0
##  5   102        0     0  vryhap     2       0      0        0      0
##  6   103        0     0  hapavg     2       0      1        0      0
##  7   104        7     1  hapavg     4       0      1        0      0
##  8   105        7     1  hapavg     6       0      1        0      0
##  9   106        0     0  vryhap     3       0      0        1      0
## 10   107        0     1  vryhap     5       0      0        0      0
## # ... with 591 more rows, and 1 more variables: vryrel <dbl>
```
