…
–

Differences in means may not reflect differences at all points in scale if variances are different

–

Substantive interest may also lie with differences at other points in the distribution.

Restructure the data for plotting

d <- d %>% 
  gather(group, value, -var) 
d

## # A tibble: 4,000 x 3
##    var    group value
##    <chr>  <chr> <dbl>
##  1 common low   10.8 
##  2 common low   10.7 
##  3 common low    9.47
##  4 common low   10.1 
##  5 common low   10.7 
##  6 common low    9.25
##  7 common low   10.8 
##  8 common low   10.8 
##  9 common low    9.82
## 10 common low    9.74
## # ... with 3,990 more rows
…
