Developing Your First R Package
…
---
# Restructure the data for plotting

```r
d <- d %>% 
  gather(group, value, -var) 
d
```

```
## # A tibble: 4,000 x 3
##    var    group value
##    <chr>  <chr> <dbl>
##  1 common low    9.34
##  2 common low   11.4 
##  3 common low   10.2 
##  4 common low    8.97
##  5 common low    9.09
##  6 common low    9.26
##  7 common low    9.59
##  8 common low    8.43
##  9 common low   10.4 
## 10 common low    8.54
## # ... with 3,990 more rows
```
…
