Mapping Statewide School Ratings with US Census Tracts
…
# Clean up the file to what we need
ratings <- ratings %>% 
  filter(district_name == "Portland SD 1J") %>% 
  spread(indicator, rating) %>% 
  clean_names() %>% 
  select(school_name, achievement) %>% 
  mutate(achievement = parse_number(achievement)) %>% 
  filter(!is.na(achievement))
    
ratings

## # A tibble: 84 x 2
##                      school_name achievement
##                            <chr>       <dbl>
##  1   Abernethy Elementary School           5
##  2   Ainsworth Elementary School           5
##  3     Alameda Elementary School           5
##  4      Arleta Elementary School           3
##  5       Astor Elementary School           3
##  6    Atkinson Elementary School           4
##  7  Rosa Parks Elementary School           2
##  8       Beach Elementary School           3
##  9        Beaumont Middle School           4
## 10 Boise-Eliot Elementary School           2
## # ... with 74 more rows

In the above code, we import the ratings, filter for only schools in Portland School District, spread the data out so we have column for the achievement ratings, and then select only the two variables we really need - the school name and the achievement rating.This is a good start, but we don’t yet have the geographical coordinates of the schools. To do that, we’ll get another dataset from ODE that has the physical address of each school. We’ll then transform those addresses to lattitude and longitude using a bit of help from google. First, the addresses:

addresses <- import("http://www.ode.state.or.us/pubs/labels/SchoolMail.xls",
                    setclass = "tbl_df") %>% 
  clean_names() %>% 
  filter(city == "PORTLAND") %>% 
  mutate(name = str_to_title(name)) %>% 
  unite(address, c(address, city, state, zip), sep = " ") %>% 
  select(name, address)
              
addresses

## # A tibble: 146 x 2
##                           name                                     address
##  *                       <chr>                                       <chr>
##  1 Abernethy Elementary School   2421 SE ORANGE AVE PORTLAND OR 97214-5398
##  2 Ainsworth Elementary School    2425 SW VISTA AVE PORTLAND OR 97201-2399
##  3   Alameda Elementary School   2732 NE FREMONT ST PORTLAND OR 97212-2542
##  4     Alder Elementary School    17200 SE ALDER ST PORTLAND OR 97233-4260
##  5     Alice Ott Middle School   12500 SE RAMONA ST PORTLAND OR 97236-4699
##  6        Alliance High School   4039 NE ALBERTA CT PORTLAND OR 97211-8199
##  7    Arleta Elementary School     5109 SE 66TH AVE PORTLAND OR 97206-4599
##  8              Arthur Academy 13717 SE DIVISION ST PORTLAND OR 97236-2841
##  9     Astor Elementary School       5601 N YALE ST PORTLAND OR 97203-5299
## 10  Atkinson Elementary School  5800 SE DIVISION ST PORTLAND OR 97206-1499
## # ... with 136 more rows

We’ll now join the addresses dataset with our ratings dataset, which we know contains only the schools in Portland School District.

d <- inner_join(ratings, addresses, by = c("school_name" = "name"))
d

## # A tibble: 81 x 3
##                      school_name achievement
##                            <chr>       <dbl>
##  1   Abernethy Elementary School           5
##  2   Ainsworth Elementary School           5
##  3     Alameda Elementary School           5
##  4      Arleta Elementary School           3
##  5       Astor Elementary School           3
##  6    Atkinson Elementary School           4
##  7  Rosa Parks Elementary School           2
##  8       Beach Elementary School           3
##  9        Beaumont Middle School           4
## 10 Boise-Eliot Elementary School           2
## # ... with 71 more rows, and 1 more variables: address <chr>

Now, we can find the longitude and lattitude of each school using the physical address with the help of the ggmap package and, specifically, the geocode function.

library(ggmap)
lat_long <- geocode(d$address, source = "dsk")
d <- bind_cols(d, lat_long)
d

## # A tibble: 81 x 5
##                      school_name achievement
##                            <chr>       <dbl>
##  1   Abernethy Elementary School           5
##  2   Ainsworth Elementary School           5
##  3     Alameda Elementary School           5
##  4      Arleta Elementary School           3
##  5       Astor Elementary School           3
##  6    Atkinson Elementary School           4
##  7  Rosa Parks Elementary School           2
##  8       Beach Elementary School           3
##  9        Beaumont Middle School           4
## 10 Boise-Eliot Elementary School           2
## # ... with 71 more rows, and 3 more variables: address <chr>, lon <dbl>,
## #   lat <dbl>
…
