Finishing up with tidy data
…
```r
votes <- votes %>% 
  rename(state = V1)
```

---
# Step 2: `gather()`

```r
votes %>% 
    gather(year, approval_rating, -1)
```

```
## # A tibble: 1,550 x 3
##    state       year  approval_rating
##    <chr>       <chr>           <dbl>
##  1 Alabama     X1856           NA   
##  2 Alaska      X1856           NA   
##  3 Arizona     X1856           NA   
##  4 Arkansas    X1856           NA   
##  5 California  X1856           18.77
##  6 Colorado    X1856           NA   
##  7 Connecticut X1856           53.18
##  8 Delaware    X1856            2.11
##  9 Florida     X1856           NA   
## 10 Georgia     X1856           NA   
## # ... with 1,540 more rows
```

---
# Clean up some

```r
votes_tidy <- votes %>% 
    gather(year, approval_rating, -1) %>% 
    mutate(year = parse_number(year))
votes_tidy
```

```
## # A tibble: 1,550 x 3
##    state        year approval_rating
##    <chr>       <dbl>           <dbl>
##  1 Alabama      1856           NA   
##  2 Alaska       1856           NA   
##  3 Arizona      1856           NA   
##  4 Arkansas     1856           NA   
##  5 California   1856           18.77
##  6 Colorado     1856           NA   
##  7 Connecticut  1856           53.18
##  8 Delaware     1856            2.11
##  9 Florida      1856           NA   
## 10 Georgia      1856           NA   
## # ... with 1,540 more rows
```
…
---
# `gather`

```r
affairs %>% 
  gather(var, val, -id, -naffairs, -kids)
```

```
## # A tibble: 9,616 x 5
##       id naffairs  kids var               val
##    <int>    <int> <int> <chr>           <int>
##  1     1        0     0 marhap_vryunhap     0
##  2     2        0     0 marhap_vryunhap     0
##  3     3        3     0 marhap_vryunhap     0
##  4     4        0     1 marhap_vryunhap     0
##  5     5        3     1 marhap_vryunhap     0
##  6     6        0     1 marhap_vryunhap     0
##  7     7        0     0 marhap_vryunhap     0
##  8     8        0     0 marhap_vryunhap     0
##  9     9        7     1 marhap_vryunhap     0
## 10    10        0     0 marhap_vryunhap     0
## # ... with 9,606 more rows
```

---
# `separate`

```r
affairs %>% 
  gather(var, val, -id, -naffairs, -kids) %>% 
  separate(var, c("var", "char_val"))
```

```
## # A tibble: 9,616 x 6
##       id naffairs  kids var    char_val   val
##    <int>    <int> <int> <chr>  <chr>    <int>
##  1     1        0     0 marhap vryunhap     0
##  2     2        0     0 marhap vryunhap     0
##  3     3        3     0 marhap vryunhap     0
##  4     4        0     1 marhap vryunhap     0
##  5     5        3     1 marhap vryunhap     0
##  6     6        0     1 marhap vryunhap     0
##  7     7        0     0 marhap vryunhap     0
##  8     8        0     0 marhap vryunhap     0
##  9     9        7     1 marhap vryunhap     0
## 10    10        0     0 marhap vryunhap     0
## # ... with 9,606 more rows
```

---
# Filter

```r
affairs %>% 
  gather(var, val, -id, -naffairs, -kids) %>% 
  separate(var, c("var", "char_val")) %>%
  filter(val == 1)
```

```
## # A tibble: 1,803 x 6
##       id naffairs  kids var    char_val   val
##    <int>    <int> <int> <chr>  <chr>    <int>
##  1    49       12     1 marhap vryunhap     1
##  2    64        0     1 marhap vryunhap     1
##  3    82        0     1 marhap vryunhap     1
##  4   138        0     1 marhap vryunhap     1
##  5   150       12     1 marhap vryunhap     1
##  6   206        7     1 marhap vryunhap     1
##  7   215        0     1 marhap vryunhap     1
##  8   275        3     1 marhap vryunhap     1
##  9   358        0     1 marhap vryunhap     1
## 10   371        0     1 marhap vryunhap     1
## # ... with 1,793 more rows
```
…
