…
----
## What's the primary key here? 
Are there foreign keys?


```r
library(rio)
ecls <- import("../../data/ecls-k_samp.sav", setclass = "tbl_df") %>% 
    characterize()
ecls
```

```
## # A tibble: 984 x 33
##    child_id teacher_id school_id   k_type school_type    sex
##       <chr>      <chr>     <chr>    <chr>       <chr>  <chr>
##  1 0842021C    0842T02      0842 full-day      public   male
##  2 0905002C    0905T01      0905 full-day     private   male
##  3 0150012C    0150T01      0150 full-day     private female
##  4 0556009C    0556T01      0556 full-day     private female
##  5 0089013C    0089T04      0089 full-day      public   male
##  6 1217001C    1217T13      1217 half-day      public female
##  7 1092008C    1092T01      1092 half-day      public female
##  8 0083007C    0083T16      0083 full-day      public   male
##  9 1091005C    1091T02      1091 half-day     private   male
## 10 2006006C    2006T01      2006 full-day     private   male
## # ... with 974 more rows, and 27 more variables: ethnic <chr>,
## #   famtype <chr>, numsibs <dbl>, SES_cont <dbl>, SES_cat <chr>,
## #   age <dbl>, T1RSCALE <dbl>, T1MSCALE <dbl>, T1GSCALE <dbl>,
## #   T2RSCALE <dbl>, T2MSCALE <dbl>, T2GSCALE <dbl>, IRTreadgain <dbl>,
## #   IRTmathgain <dbl>, IRTgkgain <dbl>, T1ARSLIT <dbl>, T1ARSMAT <dbl>,
## #   T1ARSGEN <dbl>, T2ARSLIT <dbl>, T2ARSMAT <dbl>, T2ARSGEN <dbl>,
## #   ARSlitgain <dbl>, ARSmathgain <dbl>, ARSgkgain <dbl>,
## #   testdate1 <date>, testdate2 <date>, elapse <dbl>
```
…
----
## What about here?


```r
income_ineq <- import("../../data/incomeInequality_tidy.csv", 
                      setclass = "tbl_df")
income_ineq 
```

```
## # A tibble: 726 x 6
##     Year Number.thousands realGDPperCap PopulationK percentile    income
##    <int>            <int>         <dbl>       <int>      <dbl>     <dbl>
##  1  1947            37237      14117.32      144126       20.0  14243.00
##  2  1947            37237      14117.32      144126       40.0  22984.00
##  3  1947            37237      14117.32      144126       60.0  31166.00
##  4  1947            37237      14117.32      144126       80.0  44223.00
##  5  1947            37237      14117.32      144126       50.0  26764.14
##  6  1947            37237      14117.32      144126       90.0  41477.00
##  7  1947            37237      14117.32      144126       95.0  54172.00
##  8  1947            37237      14117.32      144126       99.0 134415.00
##  9  1947            37237      14117.32      144126       99.5 203001.00
## 10  1947            37237      14117.32      144126       99.9 479022.00
## # ... with 716 more rows
```
…
----
## Sometimes there is no key
* These tables have an *implicit* id - the row numbers. For example:


```r
flights
```

```
## # A tibble: 336,776 x 19
##     year month   day dep_time sched_dep_time dep_delay arr_time
##    <int> <int> <int>    <int>          <int>     <dbl>    <int>
##  1  2013     1     1      517            515         2      830
##  2  2013     1     1      533            529         4      850
##  3  2013     1     1      542            540         2      923
##  4  2013     1     1      544            545        -1     1004
##  5  2013     1     1      554            600        -6      812
##  6  2013     1     1      554            558        -4      740
##  7  2013     1     1      555            600        -5      913
##  8  2013     1     1      557            600        -3      709
##  9  2013     1     1      557            600        -3      838
## 10  2013     1     1      558            600        -2      753
## # ... with 336,766 more rows, and 12 more variables: sched_arr_time <int>,
## #   arr_delay <dbl>, carrier <chr>, flight <int>, tailnum <chr>,
## #   origin <chr>, dest <chr>, air_time <dbl>, distance <dbl>, hour <dbl>,
## #   minute <dbl>, time_hour <dttm>
```

----


```r
flights %>% 
    count(year, month, day, flight) %>% 
    filter(n > 1)
```

```
## # A tibble: 29,768 x 5
##     year month   day flight     n
##    <int> <int> <int>  <int> <int>
##  1  2013     1     1      1     2
##  2  2013     1     1      3     2
##  3  2013     1     1      4     2
##  4  2013     1     1     11     3
##  5  2013     1     1     15     2
##  6  2013     1     1     21     2
##  7  2013     1     1     27     4
##  8  2013     1     1     31     2
##  9  2013     1     1     32     2
## 10  2013     1     1     35     2
## # ... with 29,758 more rows
```

----
## Create a key
* If there is no key, it's often helpful to add one. These are called *surrogate* keys.


```r
flights <- flights %>% 
    mutate(new_id = row_number())
flights[ ,c(1:3, ncol(flights))]
```

```
## # A tibble: 336,776 x 4
##     year month   day new_id
##    <int> <int> <int>  <int>
##  1  2013     1     1      1
##  2  2013     1     1      2
##  3  2013     1     1      3
##  4  2013     1     1      4
##  5  2013     1     1      5
##  6  2013     1     1      6
##  7  2013     1     1      7
##  8  2013     1     1      8
##  9  2013     1     1      9
## 10  2013     1     1     10
## # ... with 336,766 more rows
```
…
----

```r
left_join(stu, dems)
```

```
## Joining, by = "sid"
```

```
## # A tibble: 27 x 3
##      sid score  sped
##    <int> <dbl> <chr>
##  1     1    10    no
##  2     1    10    no
##  3     1    10    no
##  4     1    12    no
##  5     1    12    no
##  6     1    12    no
##  7     1    15    no
##  8     1    15    no
##  9     1    15    no
## 10     2     8    no
## # ... with 17 more rows
```
…
```
## Joining, by = "school_id"
```

----

```r
ecls
```

```
## # A tibble: 984 x 34
##    school_id sch_pre_math child_id teacher_id   k_type school_type    sex
##        <chr>        <dbl>    <chr>      <chr>    <chr>       <chr>  <chr>
##  1      0001      20.4580 0001010C    0001T01 full-day      public   male
##  2      0002      14.9770 0002010C    0002T01 half-day      public female
##  3      0009      18.8200 0009026C    0009T01 half-day      public   male
##  4      0009      18.8200 0009014C    0009T02 half-day      public   male
##  5      0009      18.8200 0009005C    0009T01 half-day      public   male
##  6      0013      42.3210 0013003C    0013T01 full-day     private female
##  7      0016      17.5510 0016004C    0016T01 half-day      public   male
##  8      0016      17.5510 0016009C    0016T01 half-day      public female
##  9      0022      17.8465 0022005C    0022T01 half-day      public   male
## 10      0022      17.8465 0022014C    0022T03 half-day      public female
## # ... with 974 more rows, and 27 more variables: ethnic <chr>,
## #   famtype <chr>, numsibs <dbl>, SES_cont <dbl>, SES_cat <chr>,
## #   age <dbl>, T1RSCALE <dbl>, T1MSCALE <dbl>, T1GSCALE <dbl>,
## #   T2RSCALE <dbl>, T2MSCALE <dbl>, T2GSCALE <dbl>, IRTreadgain <dbl>,
## #   IRTmathgain <dbl>, IRTgkgain <dbl>, T1ARSLIT <dbl>, T1ARSMAT <dbl>,
## #   T1ARSGEN <dbl>, T2ARSLIT <dbl>, T2ARSMAT <dbl>, T2ARSGEN <dbl>,
## #   ARSlitgain <dbl>, ARSmathgain <dbl>, ARSgkgain <dbl>,
## #   testdate1 <date>, testdate2 <date>, elapse <dbl>
```
…
----


```r
left_join(flights2, weather)
```

```
## Joining, by = c("year", "month", "day", "hour", "origin")
```

```
## # A tibble: 336,776 x 18
##     year month   day  hour origin  dest tailnum carrier  temp  dewp humid
##    <dbl> <dbl> <int> <dbl>  <chr> <chr>   <chr>   <chr> <dbl> <dbl> <dbl>
##  1  2013     1     1     5    EWR   IAH  N14228      UA    NA    NA    NA
##  2  2013     1     1     5    LGA   IAH  N24211      UA    NA    NA    NA
##  3  2013     1     1     5    JFK   MIA  N619AA      AA    NA    NA    NA
##  4  2013     1     1     5    JFK   BQN  N804JB      B6    NA    NA    NA
##  5  2013     1     1     6    LGA   ATL  N668DN      DL 39.92 26.06 57.33
##  6  2013     1     1     5    EWR   ORD  N39463      UA    NA    NA    NA
##  7  2013     1     1     6    EWR   FLL  N516JB      B6 39.02 26.06 59.37
##  8  2013     1     1     6    LGA   IAD  N829AS      EV 39.92 26.06 57.33
##  9  2013     1     1     6    JFK   MCO  N593JB      B6 39.02 26.06 59.37
## 10  2013     1     1     6    LGA   ORD  N3ALAA      AA 39.92 26.06 57.33
## # ... with 336,766 more rows, and 7 more variables: wind_dir <dbl>,
## #   wind_speed <dbl>, wind_gust <dbl>, precip <dbl>, pressure <dbl>,
## #   visib <dbl>, time_hour <dttm>
```

----
## Use only some vars?

* If we were joining *flights2* and *planes*, we would not want to use the year variable in the join, because it means different things in each dataset.


```r
planes
```

```
## # A tibble: 3,322 x 9
##    tailnum  year                    type     manufacturer     model
##      <chr> <int>                   <chr>            <chr>     <chr>
##  1  N10156  2004 Fixed wing multi engine          EMBRAER EMB-145XR
##  2  N102UW  1998 Fixed wing multi engine AIRBUS INDUSTRIE  A320-214
##  3  N103US  1999 Fixed wing multi engine AIRBUS INDUSTRIE  A320-214
##  4  N104UW  1999 Fixed wing multi engine AIRBUS INDUSTRIE  A320-214
##  5  N10575  2002 Fixed wing multi engine          EMBRAER EMB-145LR
##  6  N105UW  1999 Fixed wing multi engine AIRBUS INDUSTRIE  A320-214
##  7  N107US  1999 Fixed wing multi engine AIRBUS INDUSTRIE  A320-214
##  8  N108UW  1999 Fixed wing multi engine AIRBUS INDUSTRIE  A320-214
##  9  N109UW  1999 Fixed wing multi engine AIRBUS INDUSTRIE  A320-214
## 10  N110UW  1999 Fixed wing multi engine AIRBUS INDUSTRIE  A320-214
## # ... with 3,312 more rows, and 4 more variables: engines <int>,
## #   seats <int>, speed <int>, engine <chr>
```

----
* How? Specify the variables with `by`


```r
left_join(flights2, planes, by = "tailnum")
```

```
## # A tibble: 336,776 x 16
##    year.x month   day  hour origin  dest tailnum carrier year.y
##     <int> <int> <int> <dbl>  <chr> <chr>   <chr>   <chr>  <int>
##  1   2013     1     1     5    EWR   IAH  N14228      UA   1999
##  2   2013     1     1     5    LGA   IAH  N24211      UA   1998
##  3   2013     1     1     5    JFK   MIA  N619AA      AA   1990
##  4   2013     1     1     5    JFK   BQN  N804JB      B6   2012
##  5   2013     1     1     6    LGA   ATL  N668DN      DL   1991
##  6   2013     1     1     5    EWR   ORD  N39463      UA   2012
##  7   2013     1     1     6    EWR   FLL  N516JB      B6   2000
##  8   2013     1     1     6    LGA   IAD  N829AS      EV   1998
##  9   2013     1     1     6    JFK   MCO  N593JB      B6   2004
## 10   2013     1     1     6    LGA   ORD  N3ALAA      AA     NA
## # ... with 336,766 more rows, and 7 more variables: type <chr>,
## #   manufacturer <chr>, model <chr>, engines <int>, seats <int>,
## #   speed <int>, engine <chr>
```
…
* Let's filter classrooms with extremely high math pretest average scores.
    + First, calculate averages


```r
av_pre_mth <- ecls %>% 
    group_by(teacher_id, k_type) %>% 
    summarize(av_pre_mth = mean(T1MSCALE)) 
av_pre_mth
```

```
## # A tibble: 707 x 3
## # Groups:   teacher_id [?]
##    teacher_id   k_type av_pre_mth
##         <chr>    <chr>      <dbl>
##  1    0001T01 full-day    20.4580
##  2    0002T01 half-day    14.9770
##  3    0009T01 half-day    17.6475
##  4    0009T02 half-day    21.1650
##  5    0013T01 full-day    42.3210
##  6    0016T01 half-day    17.5510
##  7    0022T01 half-day    20.3680
##  8    0022T03 half-day    15.3250
##  9    0023T01 half-day    10.9880
## 10    0023T04 half-day    20.0220
## # ... with 697 more rows
```
…
```r
extr_low_ecls <- anti_join(ecls, extr_high)
```

```
## Joining, by = c("teacher_id", "k_type")
```

```r
extr_low_ecls
```

```
## # A tibble: 974 x 34
##    school_id sch_pre_math child_id teacher_id   k_type school_type    sex
##        <chr>        <dbl>    <chr>      <chr>    <chr>       <chr>  <chr>
##  1      0001      20.4580 0001010C    0001T01 full-day      public   male
##  2      0002      14.9770 0002010C    0002T01 half-day      public female
##  3      0009      18.8200 0009026C    0009T01 half-day      public   male
##  4      0009      18.8200 0009014C    0009T02 half-day      public   male
##  5      0009      18.8200 0009005C    0009T01 half-day      public   male
##  6      0016      17.5510 0016004C    0016T01 half-day      public   male
##  7      0016      17.5510 0016009C    0016T01 half-day      public female
##  8      0022      17.8465 0022005C    0022T01 half-day      public   male
##  9      0022      17.8465 0022014C    0022T03 half-day      public female
## 10      0023      15.5050 0023017C    0023T04 half-day      public   male
## # ... with 964 more rows, and 27 more variables: ethnic <chr>,
## #   famtype <chr>, numsibs <dbl>, SES_cont <dbl>, SES_cat <chr>,
## #   age <dbl>, T1RSCALE <dbl>, T1MSCALE <dbl>, T1GSCALE <dbl>,
## #   T2RSCALE <dbl>, T2MSCALE <dbl>, T2GSCALE <dbl>, IRTreadgain <dbl>,
## #   IRTmathgain <dbl>, IRTgkgain <dbl>, T1ARSLIT <dbl>, T1ARSMAT <dbl>,
## #   T1ARSGEN <dbl>, T2ARSLIT <dbl>, T2ARSMAT <dbl>, T2ARSGEN <dbl>,
## #   ARSlitgain <dbl>, ARSmathgain <dbl>, ARSgkgain <dbl>,
## #   testdate1 <date>, testdate2 <date>, elapse <dbl>
```
…
----
## Another filter join example
* This is an example I came up with before knowing that `semi_join()` or `anti_join()` existed.
* Trying to select one cohort of students from the seda data


```r
seda <- import("../../data/seda.csv", setclass = "tbl_df")
seda
```

```
## # A tibble: 326,246 x 10
##     leaid                leaname  fips stateabb  year grade mean_link_ela
##     <int>                  <chr> <int>    <chr> <int> <int>         <dbl>
##  1 100002 ALABAMA YOUTH SERVICES     1       AL  2009     8      210.5474
##  2 100002 ALABAMA YOUTH SERVICES     1       AL  2011     8      231.6601
##  3 100002 ALABAMA YOUTH SERVICES     1       AL  2012     8      226.1813
##  4 100005       ALBERTVILLE CITY     1       AL  2009     3      204.4659
##  5 100005       ALBERTVILLE CITY     1       AL  2009     4      207.4045
##  6 100005       ALBERTVILLE CITY     1       AL  2009     5      216.8594
##  7 100005       ALBERTVILLE CITY     1       AL  2009     6      229.0331
##  8 100005       ALBERTVILLE CITY     1       AL  2009     7      242.0856
##  9 100005       ALBERTVILLE CITY     1       AL  2009     8      250.2386
## 10 100005       ALBERTVILLE CITY     1       AL  2010     3      205.7993
## # ... with 326,236 more rows, and 3 more variables: se_link_ela <dbl>,
## #   mean_link_math <dbl>, se_link_math <dbl>
```
…
```r
seda <- right_join(seda, criteria)
```

```
## Joining, by = c("year", "grade")
```

```r
seda %>% arrange(leaid)
```

```
## # A tibble: 54,311 x 10
##     leaid          leaname  fips stateabb  year grade mean_link_ela
##     <int>            <chr> <int>    <chr> <int> <int>         <dbl>
##  1 100005 ALBERTVILLE CITY     1       AL  2009     3      204.4659
##  2 100005 ALBERTVILLE CITY     1       AL  2010     4      219.0224
##  3 100005 ALBERTVILLE CITY     1       AL  2011     5      220.5850
##  4 100005 ALBERTVILLE CITY     1       AL  2012     6      235.1851
##  5 100005 ALBERTVILLE CITY     1       AL  2013     7      243.9144
##  6 100006  MARSHALL COUNTY     1       AL  2009     3      205.9022
##  7 100006  MARSHALL COUNTY     1       AL  2010     4      217.7184
##  8 100006  MARSHALL COUNTY     1       AL  2011     5      227.1329
##  9 100006  MARSHALL COUNTY     1       AL  2012     6      237.4675
## 10 100006  MARSHALL COUNTY     1       AL  2013     7      254.0359
## # ... with 54,301 more rows, and 3 more variables: se_link_ela <dbl>,
## #   mean_link_math <dbl>, se_link_math <dbl>
```
…
