Tidy data, data viz, and summaries - Data Science in Education
…
Note - we’re essentially un-dummy-coding these variables

library(tidyverse)
star_tidy <- star %>% 
  mutate(sid = row_number()) %>% 
  gather(var, val, c(4:9)) %>% 
  separate(var, c("var", "val2"), sep = " ") %>% 
  filter(val == 1) %>% 
  select(-val) %>% 
  spread(var, val2)  %>% 
  arrange(sid) 
star_tidy

## # A tibble: 5,748 × 9
##    schidkn   sex   frl totexp tmathss treadss   sid   eth         size
##      <int> <chr> <chr>  <int>   <int>   <int> <int> <chr>        <chr>
## 1       63  girl    no      7     473     447     1 white   small_size
## 2       20  girl    no     21     536     450     2 black   small_size
## 3       19   boy   yes      0     463     439     3 black reg_size_aid
## 4       69   boy    no     16     559     448     4 white     reg_size
## 5       79   boy   yes      5     489     447     5 white   small_size
## 6        5   boy   yes      8     454     431     6 white     reg_size
## 7       16  girl   yes     17     423     395     7 black reg_size_aid
## 8       56  girl    no      3     500     451     8 white     reg_size
## 9       11  girl    no     11     439     478     9 black   small_size
## 10      66  girl    no     10     528     455    10 white   small_size
## # ... with 5,738 more rows

Quick housekeeping

Let’s reorder the variables to make it a little tidy-er

star_tidy <- star_tidy %>% 
    select(sid, schidkn, sex, frl, eth, totexp, size, 5:6)
star_tidy

## # A tibble: 5,748 × 9
##      sid schidkn   sex   frl   eth totexp         size tmathss treadss
##    <int>   <int> <chr> <chr> <chr>  <int>        <chr>   <int>   <int>
## 1      1      63  girl    no white      7   small_size     473     447
## 2      2      20  girl    no black     21   small_size     536     450
## 3      3      19   boy   yes black      0 reg_size_aid     463     439
## 4      4      69   boy    no white     16     reg_size     559     448
## 5      5      79   boy   yes white      5   small_size     489     447
## 6      6       5   boy   yes white      8     reg_size     454     431
## 7      7      16  girl   yes black     17 reg_size_aid     423     395
## 8      8      56  girl    no white      3     reg_size     500     451
## 9      9      11  girl    no black     11   small_size     439     478
## 10    10      66  girl    no white     10   small_size     528     455
## # ... with 5,738 more rows
…
What if…

We wanted to have a plot faceted by subject? What would we need to do?

gather once more

Note, this is still tidy, but the level of analysis has changed. In other words, before, each case (row) represented a student. Now, each case represents a student within a content area.

gathered_star_tidy <- star_tidy %>% 
    gather(subject, score, tmathss:treadss) 
gathered_star_tidy

## # A tibble: 11,496 × 9
##      sid schidkn   sex   frl   eth totexp         size subject score
##    <int>   <int> <chr> <chr> <chr>  <int>        <chr>   <chr> <int>
## 1      1      63  girl    no white      7   small_size tmathss   473
## 2      2      20  girl    no black     21   small_size tmathss   536
## 3      3      19   boy   yes black      0 reg_size_aid tmathss   463
## 4      4      69   boy    no white     16     reg_size tmathss   559
## 5      5      79   boy   yes white      5   small_size tmathss   489
## 6      6       5   boy   yes white      8     reg_size tmathss   454
## 7      7      16  girl   yes black     17 reg_size_aid tmathss   423
## 8      8      56  girl    no white      3     reg_size tmathss   500
## 9      9      11  girl    no black     11   small_size tmathss   439
## 10    10      66  girl    no white     10   small_size tmathss   528
## # ... with 11,486 more rows
…
Plotting summaries

Compute first

Produce a summary dataset

Plot results

by_exp <- star_tidy %>% 
    group_by(totexp) %>% 
    summarize(n = n(),
              tmathss = mean(tmathss))
by_exp

## # A tibble: 25 × 3
##    totexp     n  tmathss
##     <int> <int>    <dbl>
## 1       0   252 482.5714
## 2       1   284 476.0317
## 3       2   242 478.3306
## 4       3   339 482.1327
## 5       4   191 495.3770
## 6       5   348 481.7155
## 7       6   406 483.0419
## 8       7   175 476.6457
## 9       8   488 479.7582
## 10      9   215 488.3256
## # ... with 15 more rows
…
