Alluvial Diagrams with ggforce
…
Context

In schools across the country students who are struggling academically may be screened and evaluated to determine if they have a specific learning disability (SLD). Unfortunately, the protocols for making these determinations are not always consistent. We were interested, therefore, in examining the extent to which students shift into and out of the SLD classification over time. In this particular example, we only have data for middle school students (Grades 6-8), although similar research has examined other grades.

The data

The actual dataset is rather large, and contains statewide testing records for all students in the state of Oregon across Grades 6-8 for three cohorts. For the purposes of this blogpost, I first simulated new data (so I could share it here) using the synthpop package, which is pretty impressive and perfect for this sort of purpose (I unfortunately am not allowed to share the real data publicly). I then took a random sample of 5% of the students in the synthetic data so it wouldn’t be so large. The data are available here, and you can read the file in directly using the following block of code, (which also cleans up the names a bit and selects only the relevant variables).

library(tidyverse)
d <- read_csv("http://www.dandersondata.com/post/data/synthetic_data2.csv") %>% 
  janitor::clean_names() %>% 
  select(sid, grade, sld, ld33)
d

## # A tibble: 11,298 x 4
##         sid grade   sld   ld33
##       <int> <int> <int>  <chr>
##  1 12931993     6     0  Never
##  2  5757142     6     0  Never
##  3  7720394     6     0  Never
##  4  7035071     6     0  Never
##  5  7782160     6     0  Never
##  6  8306796     6     0  Never
##  7  8213712     6     1 Always
##  8  3808246     6     0  Never
##  9  2539721     6     0  Never
## 10  6730043     6     0  Never
## # ... with 11,288 more rows
…
Now we’re getting close, but the actual format ggforce needs the data in is a bit more complex. Luckily, the package provides a helper function. We just need to tell it, basically, which columns we want along the x-axis.

library(ggforce)
pd <- pd %>% 
  gather_set_data(1:3)

pd

## # A tibble: 21 x 8
## # Groups:   Grade 6, Grade 7, Grade 8 [7]
##    `Grade 6` `Grade 7` `Grade 8`     n             Pattern    id       x
##        <chr>     <chr>     <chr> <int>               <chr> <int>   <chr>
##  1   Non-SLD   Non-SLD       SLD    16 Non-SLD/Non-SLD/SLD     1 Grade 6
##  2   Non-SLD       SLD   Non-SLD     1 Non-SLD/SLD/Non-SLD     2 Grade 6
##  3   Non-SLD       SLD       SLD    19     Non-SLD/SLD/SLD     3 Grade 6
##  4       SLD   Non-SLD   Non-SLD    17 SLD/Non-SLD/Non-SLD     4 Grade 6
##  5       SLD   Non-SLD       SLD     1     SLD/Non-SLD/SLD     5 Grade 6
##  6       SLD       SLD   Non-SLD    20     SLD/SLD/Non-SLD     6 Grade 6
##  7       SLD       SLD       SLD   217         SLD/SLD/SLD     7 Grade 6
##  8   Non-SLD   Non-SLD       SLD    16 Non-SLD/Non-SLD/SLD     1 Grade 7
##  9   Non-SLD       SLD   Non-SLD     1 Non-SLD/SLD/Non-SLD     2 Grade 7
## 10   Non-SLD       SLD       SLD    19     Non-SLD/SLD/SLD     3 Grade 7
## # ... with 11 more rows, and 1 more variables: y <chr>
…
